%YAML 1.1
%TAG !u! tag:unity3d.com,2011:
--- !u!1 &100000
GameObject:
  m_ObjectHideFlags: 0
  m_PrefabParentObject: {fileID: 0}
  m_PrefabInternal: {fileID: 100100000}
  serializedVersion: 4
  m_Component:
  - 4: {fileID: 400000}
  - 114: {fileID: 11400000}
  m_Layer: 0
  m_Name: MineralDecoder
  m_TagString: Untagged
  m_Icon: {fileID: 0}
  m_NavMeshLayer: 0
  m_StaticEditorFlags: 0
  m_IsActive: 1
--- !u!4 &400000
Transform:
  m_ObjectHideFlags: 1
  m_PrefabParentObject: {fileID: 0}
  m_PrefabInternal: {fileID: 100100000}
  m_GameObject: {fileID: 100000}
  m_LocalRotation: {x: 0, y: 0, z: 0, w: 1}
  m_LocalPosition: {x: -10052.4336, y: -10052.6777, z: -10002.6455}
  m_LocalScale: {x: 1, y: 1, z: 1}
  m_Children: []
  m_Father: {fileID: 0}
--- !u!114 &11400000
MonoBehaviour:
  m_ObjectHideFlags: 1
  m_PrefabParentObject: {fileID: 0}
  m_PrefabInternal: {fileID: 100100000}
  m_GameObject: {fileID: 100000}
  m_Enabled: 1
  m_EditorHideFlags: 0
  m_Script: {fileID: 11500000, guid: 41238e949d939d741a6ce50a8b66928b, type: 3}
  m_Name: 
  m_EditorClassIdentifier: 
  Name: MineralDecoder
  Tiles:
  - Name: Left
    EmptyAround: 00000000
    FullAround: 020000000600000004000000
    AffinityFullAround: 
    EqualFullAround: 
    Tiles:
    - {x: 0, y: 0}
    - {x: 0, y: 1}
    - {x: 0, y: 2}
    TileOffset: {x: 0, y: 0}
    EmptyFlag: 0
    FullFlag: 0
    AffinityFullFlag: 0
    EqualFullFlag: 0
    ConstrainCount: 0
  - Name: Right
    EmptyAround: 04000000
    FullAround: 020000000600000000000000
    AffinityFullAround: 
    EqualFullAround: 
    Tiles:
    - {x: 4, y: 0}
    - {x: 4, y: 1}
    - {x: 4, y: 2}
    TileOffset: {x: 0, y: 0}
    EmptyFlag: 0
    FullFlag: 0
    AffinityFullFlag: 0
    EqualFullFlag: 0
    ConstrainCount: 0
  - Name: Up
    EmptyAround: 02000000
    FullAround: 000000000400000006000000
    AffinityFullAround: 
    EqualFullAround: 
    Tiles:
    - {x: 1, y: 0}
    - {x: 2, y: 0}
    - {x: 3, y: 0}
    TileOffset: {x: 0, y: 0}
    EmptyFlag: 0
    FullFlag: 0
    AffinityFullFlag: 0
    EqualFullFlag: 0
    ConstrainCount: 0
  - Name: Down
    EmptyAround: 06000000
    FullAround: 000000000400000002000000
    AffinityFullAround: 
    EqualFullAround: 
    Tiles:
    - {x: 1, y: 2}
    - {x: 2, y: 2}
    - {x: 3, y: 2}
    TileOffset: {x: 0, y: 0}
    EmptyFlag: 0
    FullFlag: 0
    AffinityFullFlag: 0
    EqualFullFlag: 0
    ConstrainCount: 0
  - Name: Center
    EmptyAround: 
    FullAround: 00000000060000000400000002000000
    AffinityFullAround: 
    EqualFullAround: 02000000000000000600000004000000
    Tiles:
    - {x: 1, y: 1}
    - {x: 2, y: 1}
    - {x: 3, y: 1}
    TileOffset: {x: 0, y: 0}
    EmptyFlag: 0
    FullFlag: 0
    AffinityFullFlag: 0
    EqualFullFlag: 0
    ConstrainCount: 0
  - Name: Vertical
    EmptyAround: 0000000004000000
    FullAround: 0200000006000000
    AffinityFullAround: 
    EqualFullAround: 0200000006000000
    Tiles:
    - {x: 5, y: 0}
    - {x: 5, y: 1}
    - {x: 5, y: 2}
    TileOffset: {x: 0, y: 0}
    EmptyFlag: 0
    FullFlag: 0
    AffinityFullFlag: 0
    EqualFullFlag: 0
    ConstrainCount: 0
  - Name: Horizontal
    EmptyAround: 0200000006000000
    FullAround: 0000000004000000
    AffinityFullAround: 
    EqualFullAround: 0000000004000000
    Tiles:
    - {x: 6, y: 4}
    - {x: 7, y: 4}
    - {x: 8, y: 4}
    TileOffset: {x: 0, y: 0}
    EmptyFlag: 0
    FullFlag: 0
    AffinityFullFlag: 0
    EqualFullFlag: 0
    ConstrainCount: 0
  - Name: BorderTop
    EmptyAround: 000000000200000004000000
    FullAround: 06000000
    AffinityFullAround: 
    EqualFullAround: 
    Tiles:
    - {x: 6, y: 0}
    - {x: 7, y: 0}
    - {x: 8, y: 0}
    TileOffset: {x: 0, y: 0}
    EmptyFlag: 0
    FullFlag: 0
    AffinityFullFlag: 0
    EqualFullFlag: 0
    ConstrainCount: 0
  - Name: BorderBottom
    EmptyAround: 000000000600000004000000
    FullAround: 02000000
    AffinityFullAround: 
    EqualFullAround: 
    Tiles:
    - {x: 6, y: 3}
    - {x: 7, y: 3}
    - {x: 8, y: 3}
    TileOffset: {x: 0, y: 0}
    EmptyFlag: 0
    FullFlag: 0
    AffinityFullFlag: 0
    EqualFullFlag: 0
    ConstrainCount: 0
  - Name: BorderLeft
    EmptyAround: 020000000000000006000000
    FullAround: 04000000
    AffinityFullAround: 
    EqualFullAround: 
    Tiles:
    - {x: 9, y: 0}
    - {x: 9, y: 1}
    - {x: 9, y: 2}
    TileOffset: {x: 0, y: 0}
    EmptyFlag: 0
    FullFlag: 0
    AffinityFullFlag: 0
    EqualFullFlag: 0
    ConstrainCount: 0
  - Name: BorderRight
    EmptyAround: 020000000400000006000000
    FullAround: 00000000
    AffinityFullAround: 
    EqualFullAround: 
    Tiles:
    - {x: 12, y: 0}
    - {x: 12, y: 1}
    - {x: 12, y: 2}
    TileOffset: {x: 0, y: 0}
    EmptyFlag: 0
    FullFlag: 0
    AffinityFullFlag: 0
    EqualFullFlag: 0
    ConstrainCount: 0
  - Name: JoinTop
    EmptyAround: 0100000003000000
    FullAround: 00000000040000000200000006000000
    AffinityFullAround: 
    EqualFullAround: 02000000000000000600000004000000
    Tiles:
    - {x: 6, y: 1}
    - {x: 7, y: 1}
    - {x: 8, y: 1}
    TileOffset: {x: 0, y: 0}
    EmptyFlag: 0
    FullFlag: 0
    AffinityFullFlag: 0
    EqualFullFlag: 0
    ConstrainCount: 0
  - Name: JoinBottom
    EmptyAround: 0700000005000000
    FullAround: 06000000000000000400000002000000
    AffinityFullAround: 
    EqualFullAround: 02000000000000000400000006000000
    Tiles:
    - {x: 6, y: 2}
    - {x: 7, y: 2}
    - {x: 8, y: 2}
    TileOffset: {x: 0, y: 0}
    EmptyFlag: 0
    FullFlag: 0
    AffinityFullFlag: 0
    EqualFullFlag: 0
    ConstrainCount: 0
  - Name: JoinLeft
    EmptyAround: 0100000007000000
    FullAround: 00000000020000000400000006000000
    AffinityFullAround: 
    EqualFullAround: 02000000000000000400000006000000
    Tiles:
    - {x: 10, y: 0}
    - {x: 10, y: 1}
    - {x: 10, y: 2}
    TileOffset: {x: 0, y: 0}
    EmptyFlag: 0
    FullFlag: 0
    AffinityFullFlag: 0
    EqualFullFlag: 0
    ConstrainCount: 0
  - Name: JoinRight
    EmptyAround: 0300000005000000
    FullAround: 00000000020000000400000006000000
    AffinityFullAround: 
    EqualFullAround: 02000000040000000600000000000000
    Tiles:
    - {x: 11, y: 0}
    - {x: 11, y: 1}
    - {x: 11, y: 2}
    TileOffset: {x: 0, y: 0}
    EmptyFlag: 0
    FullFlag: 0
    AffinityFullFlag: 0
    EqualFullFlag: 0
    ConstrainCount: 0
  - Name: Alone
    EmptyAround: 02000000000000000600000004000000
    FullAround: 
    AffinityFullAround: 
    EqualFullAround: 
    Tiles:
    - {x: 9, y: 3}
    - {x: 10, y: 3}
    - {x: 11, y: 3}
    TileOffset: {x: 0, y: 0}
    EmptyFlag: 0
    FullFlag: 0
    AffinityFullFlag: 0
    EqualFullFlag: 0
    ConstrainCount: 0
  - Name: LeftCorner
    EmptyAround: 0200000000000000
    FullAround: 0400000006000000
    AffinityFullAround: 
    EqualFullAround: 
    Tiles:
    - {x: 0, y: 3}
    - {x: 2, y: 3}
    - {x: 4, y: 3}
    TileOffset: {x: 0, y: 0}
    EmptyFlag: 0
    FullFlag: 0
    AffinityFullFlag: 0
    EqualFullFlag: 0
    ConstrainCount: 0
  - Name: RightCorner
    EmptyAround: 0200000004000000
    FullAround: 0000000006000000
    AffinityFullAround: 
    EqualFullAround: 
    Tiles:
    - {x: 1, y: 3}
    - {x: 3, y: 3}
    - {x: 5, y: 3}
    TileOffset: {x: 0, y: 0}
    EmptyFlag: 0
    FullFlag: 0
    AffinityFullFlag: 0
    EqualFullFlag: 0
    ConstrainCount: 0
  - Name: BottomLeftCorner
    EmptyAround: 0000000006000000
    FullAround: 0200000004000000
    AffinityFullAround: 
    EqualFullAround: 
    Tiles:
    - {x: 0, y: 4}
    - {x: 2, y: 4}
    - {x: 4, y: 4}
    TileOffset: {x: 0, y: 0}
    EmptyFlag: 0
    FullFlag: 0
    AffinityFullFlag: 0
    EqualFullFlag: 0
    ConstrainCount: 0
  - Name: BottomRightCorner
    EmptyAround: 0400000006000000
    FullAround: 0000000002000000
    AffinityFullAround: 
    EqualFullAround: 
    Tiles:
    - {x: 1, y: 4}
    - {x: 3, y: 4}
    - {x: 5, y: 4}
    TileOffset: {x: 0, y: 0}
    EmptyFlag: 0
    FullFlag: 0
    AffinityFullFlag: 0
    EqualFullFlag: 0
    ConstrainCount: 0
  - Name: AffinityTop
    EmptyAround: 02000000
    FullAround: 000000000600000004000000
    AffinityFullAround: 06000000
    EqualFullAround: 
    Tiles:
    - {x: 13, y: 0}
    - {x: 14, y: 0}
    - {x: 15, y: 0}
    TileOffset: {x: 0, y: 0}
    EmptyFlag: 0
    FullFlag: 0
    AffinityFullFlag: 0
    EqualFullFlag: 0
    ConstrainCount: 0
  - Name: AffinityBottom
    EmptyAround: 06000000
    FullAround: 000000000200000004000000
    AffinityFullAround: 02000000
    EqualFullAround: 
    Tiles:
    - {x: 13, y: 1}
    - {x: 14, y: 1}
    - {x: 15, y: 1}
    TileOffset: {x: 0, y: 0}
    EmptyFlag: 0
    FullFlag: 0
    AffinityFullFlag: 0
    EqualFullFlag: 0
    ConstrainCount: 0
  - Name: AffinityLeft
    EmptyAround: 00000000
    FullAround: 020000000400000006000000
    AffinityFullAround: 04000000
    EqualFullAround: 
    Tiles:
    - {x: 13, y: 2}
    - {x: 14, y: 2}
    - {x: 15, y: 2}
    TileOffset: {x: 0, y: 0}
    EmptyFlag: 0
    FullFlag: 0
    AffinityFullFlag: 0
    EqualFullFlag: 0
    ConstrainCount: 0
  - Name: AffinityRight
    EmptyAround: 04000000
    FullAround: 020000000000000006000000
    AffinityFullAround: 00000000
    EqualFullAround: 
    Tiles:
    - {x: 13, y: 3}
    - {x: 14, y: 3}
    - {x: 15, y: 3}
    TileOffset: {x: 0, y: 0}
    EmptyFlag: 0
    FullFlag: 0
    AffinityFullFlag: 0
    EqualFullFlag: 0
    ConstrainCount: 0
  - Name: AffinityCornerLeft
    EmptyAround: 
    FullAround: 0200000000000000060000000400000005000000070000000100000003000000
    AffinityFullAround: 05000000
    EqualFullAround: 02000000010000000000000007000000030000000600000004000000
    Tiles:
    - {x: 0, y: 5}
    - {x: 0, y: 7}
    - {x: 0, y: 9}
    TileOffset: {x: 0, y: 0}
    EmptyFlag: 0
    FullFlag: 0
    AffinityFullFlag: 0
    EqualFullFlag: 0
    ConstrainCount: 0
  - Name: AffinityCornerRight
    EmptyAround: 
    FullAround: 0200000000000000060000000400000007000000010000000300000005000000
    AffinityFullAround: 07000000
    EqualFullAround: 02000000030000000400000005000000010000000600000000000000
    Tiles:
    - {x: 1, y: 5}
    - {x: 1, y: 7}
    - {x: 1, y: 9}
    TileOffset: {x: 0, y: 0}
    EmptyFlag: 0
    FullFlag: 0
    AffinityFullFlag: 0
    EqualFullFlag: 0
    ConstrainCount: 0
  - Name: AffinityCornerTopLeft
    EmptyAround: 
    FullAround: 0200000000000000060000000400000003000000010000000700000005000000
    AffinityFullAround: 03000000
    EqualFullAround: 00000000070000000600000005000000010000000400000002000000
    Tiles:
    - {x: 0, y: 6}
    - {x: 0, y: 8}
    - {x: 0, y: 10}
    TileOffset: {x: 0, y: 0}
    EmptyFlag: 0
    FullFlag: 0
    AffinityFullFlag: 0
    EqualFullFlag: 0
    ConstrainCount: 0
  - Name: AffinityCornerTopRight
    EmptyAround: 
    FullAround: 0400000001000000020000000000000006000000030000000500000007000000
    AffinityFullAround: 01000000
    EqualFullAround: 06000000050000000400000003000000070000000200000000000000
    Tiles:
    - {x: 1, y: 10}
    - {x: 1, y: 8}
    - {x: 1, y: 6}
    TileOffset: {x: 0, y: 0}
    EmptyFlag: 0
    FullFlag: 0
    AffinityFullFlag: 0
    EqualFullFlag: 0
    ConstrainCount: 0
  - Name: AffinityBorderLeft
    EmptyAround: 
    FullAround: 0200000000000000060000000400000001000000030000000500000007000000
    AffinityFullAround: 0200000000000000
    EqualFullAround: 0400000006000000
    Tiles:
    - {x: 2, y: 5}
    - {x: 2, y: 7}
    - {x: 2, y: 9}
    TileOffset: {x: 0, y: 0}
    EmptyFlag: 0
    FullFlag: 0
    AffinityFullFlag: 0
    EqualFullFlag: 0
    ConstrainCount: 0
  - Name: AffinityBorderRight
    EmptyAround: 
    FullAround: 0000000006000000010000000500000007000000
    AffinityFullAround: 0200000004000000
    EqualFullAround: 0000000006000000
    Tiles:
    - {x: 3, y: 5}
    - {x: 3, y: 7}
    - {x: 3, y: 9}
    TileOffset: {x: 0, y: 0}
    EmptyFlag: 0
    FullFlag: 0
    AffinityFullFlag: 0
    EqualFullFlag: 0
    ConstrainCount: 0
  - Name: AffinittyBorderBottomLeft
    EmptyAround: 
    FullAround: 0200000000000000060000000400000001000000030000000500000007000000
    AffinityFullAround: 0000000006000000
    EqualFullAround: 0200000004000000
    Tiles:
    - {x: 2, y: 6}
    - {x: 2, y: 8}
    - {x: 2, y: 10}
    TileOffset: {x: 0, y: 0}
    EmptyFlag: 0
    FullFlag: 0
    AffinityFullFlag: 0
    EqualFullFlag: 0
    ConstrainCount: 0
  - Name: AffinityBorderBottomRight
    EmptyAround: 
    FullAround: 0200000000000000060000000400000001000000030000000500000007000000
    AffinityFullAround: 0400000006000000
    EqualFullAround: 0200000000000000
    Tiles:
    - {x: 3, y: 6}
    - {x: 3, y: 8}
    - {x: 3, y: 10}
    TileOffset: {x: 0, y: 0}
    EmptyFlag: 0
    FullFlag: 0
    AffinityFullFlag: 0
    EqualFullFlag: 0
    ConstrainCount: 0
  - Name: AffinityTopLeft
    EmptyAround: 00000000
    FullAround: 0200000004000000060000000300000005000000
    AffinityFullAround: 06000000
    EqualFullAround: 02000000
    Tiles:
    - {x: 4, y: 5}
    - {x: 4, y: 6}
    - {x: 4, y: 7}
    TileOffset: {x: 0, y: 0}
    EmptyFlag: 0
    FullFlag: 0
    AffinityFullFlag: 0
    EqualFullFlag: 0
    ConstrainCount: 0
  - Name: AffinityTopRight
    EmptyAround: 04000000
    FullAround: 020000000000000006000000
    AffinityFullAround: 06000000
    EqualFullAround: 02000000
    Tiles:
    - {x: 5, y: 5}
    - {x: 5, y: 6}
    - {x: 5, y: 7}
    TileOffset: {x: 0, y: 0}
    EmptyFlag: 0
    FullFlag: 0
    AffinityFullFlag: 0
    EqualFullFlag: 0
    ConstrainCount: 0
  - Name: AffinityBottomLeft
    EmptyAround: 00000000
    FullAround: 020000000400000006000000
    AffinityFullAround: 02000000
    EqualFullAround: 06000000
    Tiles:
    - {x: 4, y: 8}
    - {x: 4, y: 9}
    - {x: 4, y: 10}
    TileOffset: {x: 0, y: 0}
    EmptyFlag: 0
    FullFlag: 0
    AffinityFullFlag: 0
    EqualFullFlag: 0
    ConstrainCount: 0
  - Name: AffinityBottomRight
    EmptyAround: 
    FullAround: 020000000000000006000000
    AffinityFullAround: 02000000
    EqualFullAround: 06000000
    Tiles:
    - {x: 5, y: 8}
    - {x: 5, y: 9}
    - {x: 5, y: 10}
    TileOffset: {x: 0, y: 0}
    EmptyFlag: 0
    FullFlag: 0
    AffinityFullFlag: 0
    EqualFullFlag: 0
    ConstrainCount: 0
  - Name: AffinityBorderTop
    EmptyAround: 000000000200000004000000
    FullAround: 06000000
    AffinityFullAround: 06000000
    EqualFullAround: 
    Tiles:
    - {x: 6, y: 5}
    - {x: 6, y: 6}
    - {x: 6, y: 7}
    TileOffset: {x: 0, y: 0}
    EmptyFlag: 0
    FullFlag: 0
    AffinityFullFlag: 0
    EqualFullFlag: 0
    ConstrainCount: 0
  - Name: AffinityBorderBottom
    EmptyAround: 000000000600000004000000
    FullAround: 02000000
    AffinityFullAround: 02000000
    EqualFullAround: 
    Tiles:
    - {x: 6, y: 8}
    - {x: 6, y: 9}
    - {x: 6, y: 10}
    TileOffset: {x: 0, y: 0}
    EmptyFlag: 0
    FullFlag: 0
    AffinityFullFlag: 0
    EqualFullFlag: 0
    ConstrainCount: 0
  - Name: AffinityVerticalTop
    EmptyAround: 0000000004000000
    FullAround: 0200000006000000
    AffinityFullAround: 06000000
    EqualFullAround: 
    Tiles:
    - {x: 7, y: 5}
    - {x: 7, y: 6}
    - {x: 7, y: 7}
    TileOffset: {x: 0, y: 0}
    EmptyFlag: 0
    FullFlag: 0
    AffinityFullFlag: 0
    EqualFullFlag: 0
    ConstrainCount: 0
  - Name: AffinityVerticalBottom
    EmptyAround: 0000000004000000
    FullAround: 0200000006000000
    AffinityFullAround: 02000000
    EqualFullAround: 
    Tiles:
    - {x: 7, y: 8}
    - {x: 7, y: 9}
    - {x: 7, y: 10}
    TileOffset: {x: 0, y: 0}
    EmptyFlag: 0
    FullFlag: 0
    AffinityFullFlag: 0
    EqualFullFlag: 0
    ConstrainCount: 0
  - Name: AffinityTopAround
    EmptyAround: 
    FullAround: 02000000000000000600000004000000
    AffinityFullAround: 06000000
    EqualFullAround: 02000000
    Tiles:
    - {x: 8, y: 5}
    - {x: 9, y: 5}
    - {x: 10, y: 5}
    TileOffset: {x: 0, y: 0}
    EmptyFlag: 0
    FullFlag: 0
    AffinityFullFlag: 0
    EqualFullFlag: 0
    ConstrainCount: 0
  - Name: AffinityBottomAround
    EmptyAround: 
    FullAround: 02000000000000000600000004000000
    AffinityFullAround: 02000000
    EqualFullAround: 06000000
    Tiles:
    - {x: 8, y: 6}
    - {x: 9, y: 6}
    - {x: 10, y: 6}
    TileOffset: {x: 0, y: 0}
    EmptyFlag: 0
    FullFlag: 0
    AffinityFullFlag: 0
    EqualFullFlag: 0
    ConstrainCount: 0
  - Name: AffinityLeftAround
    EmptyAround: 
    FullAround: 02000000000000000600000004000000
    AffinityFullAround: 04000000
    EqualFullAround: 00000000
    Tiles:
    - {x: 8, y: 7}
    - {x: 8, y: 8}
    - {x: 8, y: 9}
    TileOffset: {x: 0, y: 0}
    EmptyFlag: 0
    FullFlag: 0
    AffinityFullFlag: 0
    EqualFullFlag: 0
    ConstrainCount: 0
  - Name: AffinityRightAround
    EmptyAround: 
    FullAround: 02000000000000000600000004000000
    AffinityFullAround: 00000000
    EqualFullAround: 04000000
    Tiles:
    - {x: 9, y: 7}
    - {x: 9, y: 8}
    - {x: 9, y: 9}
    TileOffset: {x: 0, y: 0}
    EmptyFlag: 0
    FullFlag: 0
    AffinityFullFlag: 0
    EqualFullFlag: 0
    ConstrainCount: 0
  - Name: AffinityVertical
    EmptyAround: 
    FullAround: 02000000000000000600000004000000
    AffinityFullAround: 0000000004000000
    EqualFullAround: 0200000006000000
    Tiles:
    - {x: 10, y: 7}
    - {x: 10, y: 8}
    - {x: 10, y: 9}
    TileOffset: {x: 0, y: 0}
    EmptyFlag: 0
    FullFlag: 0
    AffinityFullFlag: 0
    EqualFullFlag: 0
    ConstrainCount: 0
  - Name: AffinityHorizontal
    EmptyAround: 
    FullAround: 02000000000000000600000004000000
    AffinityFullAround: 0200000006000000
    EqualFullAround: 0000000004000000
    Tiles:
    - {x: 8, y: 10}
    - {x: 9, y: 10}
    - {x: 10, y: 10}
    TileOffset: {x: 0, y: 0}
    EmptyFlag: 0
    FullFlag: 0
    AffinityFullFlag: 0
    EqualFullFlag: 0
    ConstrainCount: 0
  - Name: AffinityBorderTopAround
    EmptyAround: 
    FullAround: 02000000000000000600000004000000
    AffinityFullAround: 000000000200000004000000
    EqualFullAround: 06000000
    Tiles:
    - {x: 11, y: 5}
    - {x: 11, y: 6}
    - {x: 11, y: 7}
    TileOffset: {x: 0, y: 0}
    EmptyFlag: 0
    FullFlag: 0
    AffinityFullFlag: 0
    EqualFullFlag: 0
    ConstrainCount: 0
  - Name: AffinityBorderBottomAround
    EmptyAround: 
    FullAround: 02000000000000000600000004000000
    AffinityFullAround: 000000000600000004000000
    EqualFullAround: 02000000
    Tiles:
    - {x: 11, y: 8}
    - {x: 11, y: 9}
    - {x: 11, y: 10}
    TileOffset: {x: 0, y: 0}
    EmptyFlag: 0
    FullFlag: 0
    AffinityFullFlag: 0
    EqualFullFlag: 0
    ConstrainCount: 0
  - Name: AffinityBorderLeftAround
    EmptyAround: 
    FullAround: 02000000000000000600000004000000
    AffinityFullAround: 020000000000000006000000
    EqualFullAround: 04000000
    Tiles:
    - {x: 12, y: 5}
    - {x: 12, y: 6}
    - {x: 12, y: 7}
    TileOffset: {x: 0, y: 0}
    EmptyFlag: 0
    FullFlag: 0
    AffinityFullFlag: 0
    EqualFullFlag: 0
    ConstrainCount: 0
  - Name: AffinityBorderRightAround
    EmptyAround: 
    FullAround: 02000000000000000600000004000000
    AffinityFullAround: 020000000400000006000000
    EqualFullAround: 00000000
    Tiles:
    - {x: 12, y: 8}
    - {x: 12, y: 9}
    - {x: 12, y: 10}
    TileOffset: {x: 0, y: 0}
    EmptyFlag: 0
    FullFlag: 0
    AffinityFullFlag: 0
    EqualFullFlag: 0
    ConstrainCount: 0
  - Name: AffinityTopRight
    EmptyAround: 02000000
    FullAround: 0000000006000000040000000700000005000000
    AffinityFullAround: 00000000
    EqualFullAround: 04000000
    Tiles:
    - {x: 0, y: 11}
    - {x: 1, y: 11}
    - {x: 2, y: 11}
    TileOffset: {x: 0, y: 0}
    EmptyFlag: 0
    FullFlag: 0
    AffinityFullFlag: 0
    EqualFullFlag: 0
    ConstrainCount: 0
  - Name: AffinityTopLeft
    EmptyAround: 02000000
    FullAround: 0000000006000000040000000700000005000000
    AffinityFullAround: 04000000
    EqualFullAround: 00000000
    Tiles:
    - {x: 3, y: 11}
    - {x: 4, y: 11}
    - {x: 5, y: 11}
    TileOffset: {x: 0, y: 0}
    EmptyFlag: 0
    FullFlag: 0
    AffinityFullFlag: 0
    EqualFullFlag: 0
    ConstrainCount: 0
  - Name: AffinitBottomRight
    EmptyAround: 06000000
    FullAround: 0000000002000000040000000100000003000000
    AffinityFullAround: 00000000
    EqualFullAround: 04000000
    Tiles:
    - {x: 0, y: 12}
    - {x: 1, y: 12}
    - {x: 2, y: 12}
    TileOffset: {x: 0, y: 0}
    EmptyFlag: 0
    FullFlag: 0
    AffinityFullFlag: 0
    EqualFullFlag: 0
    ConstrainCount: 0
  - Name: AffinityBottomLeft
    EmptyAround: 06000000
    FullAround: 0000000002000000040000000100000003000000
    AffinityFullAround: 04000000
    EqualFullAround: 00000000
    Tiles:
    - {x: 3, y: 12}
    - {x: 4, y: 12}
    - {x: 5, y: 12}
    TileOffset: {x: 0, y: 0}
    EmptyFlag: 0
    FullFlag: 0
    AffinityFullFlag: 0
    EqualFullFlag: 0
    ConstrainCount: 0
  - Name: AffinityCenter
    EmptyAround: 
    FullAround: 02000000000000000600000004000000
    AffinityFullAround: 02000000000000000600000004000000
    EqualFullAround: 
    Tiles:
    - {x: 6, y: 11}
    - {x: 7, y: 11}
    - {x: 8, y: 11}
    TileOffset: {x: 0, y: 0}
    EmptyFlag: 0
    FullFlag: 0
    AffinityFullFlag: 0
    EqualFullFlag: 0
    ConstrainCount: 0
  - Name: AffinityHorizontalAlone
    EmptyAround: 0200000006000000
    FullAround: 0000000004000000
    AffinityFullAround: 0000000004000000
    EqualFullAround: 
    Tiles:
    - {x: 9, y: 11}
    - {x: 10, y: 11}
    - {x: 11, y: 11}
    TileOffset: {x: 0, y: 0}
    EmptyFlag: 0
    FullFlag: 0
    AffinityFullFlag: 0
    EqualFullFlag: 0
    ConstrainCount: 0
  - Name: AffinityVerticalAlone
    EmptyAround: 0000000004000000
    FullAround: 0200000006000000
    AffinityFullAround: 0200000006000000
    EqualFullAround: 
    Tiles:
    - {x: 6, y: 12}
    - {x: 6, y: 13}
    - {x: 6, y: 14}
    TileOffset: {x: 0, y: 0}
    EmptyFlag: 0
    FullFlag: 0
    AffinityFullFlag: 0
    EqualFullFlag: 0
    ConstrainCount: 0
  - Name: AffinityBorderRight
    EmptyAround: 020000000400000006000000
    FullAround: 00000000
    AffinityFullAround: 00000000
    EqualFullAround: 
    Tiles:
    - {x: 0, y: 13}
    - {x: 1, y: 13}
    - {x: 2, y: 13}
    TileOffset: {x: 0, y: 0}
    EmptyFlag: 0
    FullFlag: 0
    AffinityFullFlag: 0
    EqualFullFlag: 0
    ConstrainCount: 0
  - Name: AffinityBorderLeft
    EmptyAround: 020000000000000006000000
    FullAround: 04000000
    AffinityFullAround: 04000000
    EqualFullAround: 
    Tiles:
    - {x: 3, y: 13}
    - {x: 4, y: 13}
    - {x: 5, y: 13}
    TileOffset: {x: 0, y: 0}
    EmptyFlag: 0
    FullFlag: 0
    AffinityFullFlag: 0
    EqualFullFlag: 0
    ConstrainCount: 0
  - Name: AffinityHorizontalRight
    EmptyAround: 0200000006000000
    FullAround: 0000000004000000
    AffinityFullAround: 00000000
    EqualFullAround: 04000000
    Tiles:
    - {x: 0, y: 14}
    - {x: 1, y: 14}
    - {x: 2, y: 14}
    TileOffset: {x: 0, y: 0}
    EmptyFlag: 0
    FullFlag: 0
    AffinityFullFlag: 0
    EqualFullFlag: 0
    ConstrainCount: 0
  - Name: AffinityHorizontalLeft
    EmptyAround: 0200000006000000
    FullAround: 0000000004000000
    AffinityFullAround: 04000000
    EqualFullAround: 00000000
    Tiles:
    - {x: 3, y: 14}
    - {x: 4, y: 14}
    - {x: 5, y: 14}
    TileOffset: {x: 0, y: 0}
    EmptyFlag: 0
    FullFlag: 0
    AffinityFullFlag: 0
    EqualFullFlag: 0
    ConstrainCount: 0
--- !u!1001 &100100000
Prefab:
  m_ObjectHideFlags: 1
  serializedVersion: 2
  m_Modification:
    m_TransformParent: {fileID: 0}
    m_Modifications: []
    m_RemovedComponents: []
  m_ParentPrefab: {fileID: 0}
  m_RootGameObject: {fileID: 100000}
  m_IsPrefabParent: 1
  m_IsExploded: 1
