%YAML 1.1
%TAG !u! tag:unity3d.com,2011:
--- !u!21 &2100000
Material:
  serializedVersion: 6
  m_ObjectHideFlags: 0
  m_PrefabParentObject: {fileID: 0}
  m_PrefabInternal: {fileID: 0}
  m_Name: GrassMaterial
  m_Shader: {fileID: 4800000, guid: c5d702062433e4e7eb8919478892e072, type: 3}
  m_ShaderKeywords: 
  m_LightmapFlags: 5
  m_CustomRenderQueue: -1
  stringTagMap: {}
  m_SavedProperties:
    serializedVersion: 2
    m_TexEnvs:
    - first:
        name: _BumpMap
      second:
        m_Texture: {fileID: 0}
        m_Scale: {x: 1, y: 1}
        m_Offset: {x: 0, y: 0}
    - first:
        name: _BumpTransSpecMap
      second:
        m_Texture: {fileID: 0}
        m_Scale: {x: 1, y: 1}
        m_Offset: {x: 0, y: 0}
    - first:
        name: _MainTex
      second:
        m_Texture: {fileID: 0}
        m_Scale: {x: 1, y: 1}
        m_Offset: {x: 0, y: 0}
    - first:
        name: _Normal_Spec
      second:
        m_Texture: {fileID: 0}
        m_Scale: {x: 1, y: 1}
        m_Offset: {x: 0, y: 0}
    m_Floats:
    - first:
        name: _Blend
      second: 1
    - first:
        name: _CutOff
      second: 0.6
    - first:
        name: _Cutoff
      second: 0.296
    - first:
        name: _Fade
      second: 1
    - first:
        name: _LightPower
      second: 1.5
    - first:
        name: _ShadowOffsetScale
      second: 0
    - first:
        name: _ShadowStrength
      second: 0.71428573
    - first:
        name: _Shininess
      second: 1
    - first:
        name: _Smoothness
      second: 0.1
    - first:
        name: _TerrainShadowStrength
      second: 0.8
    - first:
        name: _TranslucencyViewDependency
      second: 0.10714286
    - first:
        name: _VertexLitWaveScale
      second: 0.08
    - first:
        name: _Vtx_Color
      second: 0.5
    - first:
        name: _Wind_Size
      second: 0.1
    - first:
        name: _Wind_Speed
      second: 0.5
    m_Colors:
    - first:
        name: _Color
      second: {r: 0.41176468, g: 0.41176468, b: 0.41176468, a: 0.39215687}
    - first:
        name: _Color2
      second: {r: 1, g: 0.08088237, b: 0.08088237, a: 1}
    - first:
        name: _GlobalColor
      second: {r: 1, g: 1, b: 1, a: 1}
    - first:
        name: _Spec
      second: {r: 1, g: 1, b: 1, a: 1}
    - first:
        name: _TouchBendingForce
      second: {r: 0, g: 0, b: 0, a: 0}
    - first:
        name: _TouchBendingPosition
      second: {r: 0, g: 0, b: 0, a: 0}
    - first:
        name: _TranslucencyColor
      second: {r: 0.83793104, g: 1, b: 0.6544118, a: 1}
    - first:
        name: _VertexLitTranslucencyColor
      second: {r: 1, g: 1, b: 1, a: 1}
    - first:
        name: _WaveAndDistance
      second: {r: 12.16, g: 3.6, b: 1, a: 1}
    - first:
        name: _WaveMoveX
      second: {r: 0.024, g: 0.37, b: -0.12, a: 0.096}
    - first:
        name: _WaveMoveZ
      second: {r: 0.006, g: 0.41, b: 1.53, a: 0.29}
    - first:
        name: _WaveSpeed
      second: {r: 0.9, g: 0.6, b: 0.8, a: 1}
    - first:
        name: _WaveX
      second: {r: 0.07, g: 0.01, b: 0.01, a: 0.01}
    - first:
        name: _WaveXSize
      second: {r: 0.048, g: 0.06, b: 0.24, a: 0.096}
    - first:
        name: _WaveZ
      second: {r: -0.07, g: 0.01, b: 0.01, a: 0.01}
    - first:
        name: _WaveZSize
      second: {r: 0.024, g: 0.27, b: 0.08, a: 4.43}
    - first:
        name: _WavingTint
      second: {r: 0.7, g: 0.6, b: 0.5, a: 0}
    - first:
        name: _Wind_Size
      second: {r: 0.1, g: 0.1, b: 0.1, a: 0.1}
