%YAML 1.1
%TAG !u! tag:unity3d.com,2011:
--- !u!1 &100000
GameObject:
  m_ObjectHideFlags: 0
  m_PrefabParentObject: {fileID: 0}
  m_PrefabInternal: {fileID: 100100000}
  serializedVersion: 4
  m_Component:
  - 4: {fileID: 400000}
  - 114: {fileID: 11400000}
  m_Layer: 0
  m_Name: 0-CKProcessor
  m_TagString: Untagged
  m_Icon: {fileID: 0}
  m_NavMeshLayer: 0
  m_StaticEditorFlags: 0
  m_IsActive: 1
--- !u!4 &400000
Transform:
  m_ObjectHideFlags: 1
  m_PrefabParentObject: {fileID: 0}
  m_PrefabInternal: {fileID: 100100000}
  m_GameObject: {fileID: 100000}
  m_LocalRotation: {x: 0, y: 0, z: 0, w: 1}
  m_LocalPosition: {x: 0, y: 0, z: 0}
  m_LocalScale: {x: 1, y: 1, z: 1}
  m_Children: []
  m_Father: {fileID: 0}
  m_RootOrder: 0
--- !u!114 &11400000
MonoBehaviour:
  m_ObjectHideFlags: 1
  m_PrefabParentObject: {fileID: 0}
  m_PrefabInternal: {fileID: 100100000}
  m_GameObject: {fileID: 100000}
  m_Enabled: 1
  m_EditorHideFlags: 0
  m_Script: {fileID: 11500000, guid: 6a448085c050aa246b8da0d100d1acc9, type: 3}
  m_Name: 
  m_EditorClassIdentifier: 
  DataName: 
  InternalDataName: 
  UniqueId: 255
  Priority: 0
  EnableUnityUpdateFunction: 0
  EnableThreadUpdateFunction: 0
  InterlacedUpdate: 0
  EnableGenerationFunction: 1
  NextThreadId: 0
  SaveManager: {fileID: 0}
  HasSaveManager: 0
  TexturesDirectory: Textures\
  ChunkPrefab: {fileID: 100000, guid: 0f3b633cedba88946b21108855e6cfd6, type: 2}
  Voxels:
  - Id: 0
    Name: None
    TMesh:
    - Vertices: []
      Uvs: []
      Indices: 
      Tangents: []
      Normals: []
      Valid: 0
      OpositeFace: 0
      FullFace: 0
      MediumFace: 0
    - Vertices: []
      Uvs: []
      Indices: 
      Tangents: []
      Normals: []
      Valid: 0
      OpositeFace: 0
      FullFace: 0
      MediumFace: 0
    - Vertices: []
      Uvs: []
      Indices: 
      Tangents: []
      Normals: []
      Valid: 0
      OpositeFace: 0
      FullFace: 0
      MediumFace: 0
    - Vertices: []
      Uvs: []
      Indices: 
      Tangents: []
      Normals: []
      Valid: 0
      OpositeFace: 0
      FullFace: 0
      MediumFace: 0
    - Vertices: []
      Uvs: []
      Indices: 
      Tangents: []
      Normals: []
      Valid: 0
      OpositeFace: 0
      FullFace: 0
      MediumFace: 0
    - Vertices: []
      Uvs: []
      Indices: 
      Tangents: []
      Normals: []
      Valid: 0
      OpositeFace: 0
      FullFace: 0
      MediumFace: 0
    - Vertices: []
      Uvs: []
      Indices: 
      Tangents: []
      Normals: []
      Valid: 0
      OpositeFace: 0
      FullFace: 0
      MediumFace: 0
    SelectedSide: 
    IsOpen: 0
    NoisePosition: 0
  - Id: 1
    Name: Cube
    TMesh:
    - Vertices: []
      Uvs: []
      Indices: 
      Tangents: []
      Normals: []
      Valid: 0
      OpositeFace: 0
      FullFace: 0
      MediumFace: 0
    - Vertices:
      - {x: 0, y: 1, z: 0}
      - {x: 1, y: 1, z: 0}
      - {x: 1, y: 1, z: 1}
      - {x: 0, y: 1, z: 1}
      Uvs:
      - {x: 0, y: 0}
      - {x: 1, y: 0}
      - {x: 1, y: 1}
      - {x: 0, y: 1}
      Indices: 000000000200000001000000000000000300000002000000
      Tangents: []
      Normals: []
      Valid: 0
      OpositeFace: 0
      FullFace: 1
      MediumFace: 0
    - Vertices:
      - {x: 0, y: 0, z: 0}
      - {x: 0, y: 0, z: 1}
      - {x: 1, y: 0, z: 1}
      - {x: 1, y: 0, z: 0}
      Uvs:
      - {x: 0, y: 0}
      - {x: 1, y: 0}
      - {x: 1, y: 1}
      - {x: 0, y: 1}
      Indices: 000000000200000001000000000000000300000002000000
      Tangents: []
      Normals: []
      Valid: 0
      OpositeFace: 0
      FullFace: 1
      MediumFace: 0
    - Vertices:
      - {x: 0, y: 0, z: 1}
      - {x: 0, y: 0, z: 0}
      - {x: 0, y: 1, z: 0}
      - {x: 0, y: 1, z: 1}
      Uvs:
      - {x: 0, y: 0}
      - {x: 1, y: 0}
      - {x: 1, y: 1}
      - {x: 0, y: 1}
      Indices: 000000000200000001000000000000000300000002000000
      Tangents: []
      Normals: []
      Valid: 0
      OpositeFace: 0
      FullFace: 1
      MediumFace: 0
    - Vertices:
      - {x: 1, y: 0, z: 1}
      - {x: 0, y: 0, z: 1}
      - {x: 0, y: 1, z: 1}
      - {x: 1, y: 1, z: 1}
      Uvs:
      - {x: 0, y: 0}
      - {x: 1, y: 0}
      - {x: 1, y: 1}
      - {x: 0, y: 1}
      Indices: 000000000200000001000000000000000300000002000000
      Tangents: []
      Normals: []
      Valid: 0
      OpositeFace: 0
      FullFace: 1
      MediumFace: 0
    - Vertices:
      - {x: 1, y: 0, z: 0}
      - {x: 1, y: 0, z: 1}
      - {x: 1, y: 1, z: 1}
      - {x: 1, y: 1, z: 0}
      Uvs:
      - {x: 0, y: 0}
      - {x: 1, y: 0}
      - {x: 1, y: 1}
      - {x: 0, y: 1}
      Indices: 000000000200000001000000000000000300000002000000
      Tangents: []
      Normals: []
      Valid: 0
      OpositeFace: 0
      FullFace: 1
      MediumFace: 0
    - Vertices:
      - {x: 0, y: 0, z: 0}
      - {x: 1, y: 0, z: 0}
      - {x: 1, y: 1, z: 0}
      - {x: 0, y: 1, z: 0}
      Uvs:
      - {x: 0, y: 0}
      - {x: 1, y: 0}
      - {x: 1, y: 1}
      - {x: 0, y: 1}
      Indices: 000000000200000001000000000000000300000002000000
      Tangents: []
      Normals: []
      Valid: 0
      OpositeFace: 0
      FullFace: 1
      MediumFace: 0
    SelectedSide: 
    IsOpen: 0
    NoisePosition: 1
  - Id: 0
    Name: Wall
    TMesh:
    - Vertices: []
      Uvs: []
      Indices: 
      Tangents: []
      Normals: []
      Valid: 0
      OpositeFace: 0
      FullFace: 0
      MediumFace: 0
    - Vertices:
      - {x: 0, y: 1, z: 0}
      - {x: 0, y: 1, z: 1}
      - {x: 0.25, y: 1, z: 0}
      - {x: 0.25, y: 1, z: 1}
      Uvs:
      - {x: 0, y: 1}
      - {x: 0, y: 0}
      - {x: 1, y: 1}
      - {x: 1, y: 0}
      Indices: 000000000100000002000000030000000200000001000000
      Tangents: []
      Normals: []
      Valid: 0
      OpositeFace: 1
      FullFace: 0
      MediumFace: 1
    - Vertices:
      - {x: 0, y: 0, z: 0}
      - {x: 0, y: 0, z: 1}
      - {x: 0.25, y: 0, z: 0}
      - {x: 0.25, y: 0, z: 1}
      Uvs:
      - {x: 0, y: 1}
      - {x: 0, y: 0}
      - {x: 1, y: 1}
      - {x: 1, y: 0}
      Indices: 020000000100000000000000010000000200000003000000
      Tangents: []
      Normals: []
      Valid: 0
      OpositeFace: 1
      FullFace: 0
      MediumFace: 1
    - Vertices:
      - {x: 0, y: 1, z: 1}
      - {x: 0, y: 1, z: 0}
      - {x: 0, y: 0, z: 1}
      - {x: 0, y: 0, z: 0}
      Uvs:
      - {x: 0, y: 0}
      - {x: 1, y: 0}
      - {x: 0, y: 1}
      - {x: 1, y: 1}
      Indices: 000000000100000002000000030000000200000001000000
      Tangents: []
      Normals: []
      Valid: 0
      OpositeFace: 0
      FullFace: 1
      MediumFace: 0
    - Vertices:
      - {x: 0.25, y: 1, z: 1}
      - {x: 0, y: 1, z: 1}
      - {x: 0.25, y: 0, z: 1}
      - {x: 0, y: 0, z: 1}
      Uvs:
      - {x: 0, y: 0}
      - {x: 1, y: 0}
      - {x: 0, y: 1}
      - {x: 1, y: 1}
      Indices: 000000000100000002000000030000000200000001000000
      Tangents: []
      Normals: []
      Valid: 0
      OpositeFace: 1
      FullFace: 0
      MediumFace: 1
    - Vertices:
      - {x: 0.25, y: 1, z: 1}
      - {x: 0.25, y: 1, z: 0}
      - {x: 0.25, y: 0, z: 1}
      - {x: 0.25, y: 0, z: 0}
      Uvs:
      - {x: 0, y: 0}
      - {x: 1, y: 0}
      - {x: 0, y: 1}
      - {x: 1, y: 1}
      Indices: 020000000100000000000000010000000200000003000000
      Tangents: []
      Normals: []
      Valid: 0
      OpositeFace: 0
      FullFace: 0
      MediumFace: 0
    - Vertices:
      - {x: 0.25, y: 1, z: 0}
      - {x: 0, y: 1, z: 0}
      - {x: 0.25, y: 0, z: 0}
      - {x: 0, y: 0, z: 0}
      Uvs:
      - {x: 0, y: 0}
      - {x: 1, y: 0}
      - {x: 0, y: 1}
      - {x: 1, y: 1}
      Indices: 020000000100000000000000010000000200000003000000
      Tangents: []
      Normals: []
      Valid: 0
      OpositeFace: 1
      FullFace: 0
      MediumFace: 1
    SelectedSide: 
    IsOpen: 0
    NoisePosition: 0
  - Id: 0
    Name: WallAngle
    TMesh:
    - Vertices:
      - {x: 0.25, y: 1, z: 0.75}
      - {x: 0.25, y: 0, z: 0.75}
      - {x: 1, y: 1, z: 0.75}
      - {x: 1, y: 0, z: 0.75}
      - {x: 0.25, y: 1, z: 0.75}
      - {x: 0.25, y: 1, z: 0}
      - {x: 0.25, y: 0, z: 0.75}
      - {x: 0.25, y: 0, z: 0}
      Uvs:
      - {x: 0, y: 0}
      - {x: 0, y: 1}
      - {x: 1, y: 0}
      - {x: 1, y: 1}
      - {x: 0, y: 0}
      - {x: 1, y: 0}
      - {x: 0, y: 1}
      - {x: 1, y: 1}
      Indices: 020000000100000000000000010000000200000003000000060000000500000004000000050000000600000007000000
      Tangents: []
      Normals: []
      Valid: 0
      OpositeFace: 0
      FullFace: 0
      MediumFace: 0
    - Vertices:
      - {x: 0, y: 1, z: 0}
      - {x: 0, y: 1, z: 1}
      - {x: 0.25, y: 1, z: 0}
      - {x: 0.25, y: 1, z: 1}
      - {x: 0.25, y: 1, z: 1}
      - {x: 0.25, y: 1, z: 0.75}
      - {x: 1, y: 1, z: 1}
      - {x: 1, y: 1, z: 0.75}
      Uvs:
      - {x: 0, y: 1}
      - {x: 0, y: 0}
      - {x: 1, y: 1}
      - {x: 1, y: 0}
      - {x: 1, y: 0}
      - {x: 0, y: 0}
      - {x: 1, y: 1}
      - {x: 0, y: 1}
      Indices: 000000000100000002000000030000000200000001000000060000000500000004000000050000000600000007000000
      Tangents: []
      Normals: []
      Valid: 0
      OpositeFace: 1
      FullFace: 0
      MediumFace: 1
    - Vertices:
      - {x: 0, y: 0, z: 0}
      - {x: 0, y: 0, z: 1}
      - {x: 0.25, y: 0, z: 0}
      - {x: 0.25, y: 0, z: 1}
      Uvs:
      - {x: 0, y: 1}
      - {x: 0, y: 0}
      - {x: 1, y: 1}
      - {x: 1, y: 0}
      Indices: 020000000100000000000000010000000200000003000000
      Tangents: []
      Normals: []
      Valid: 0
      OpositeFace: 1
      FullFace: 0
      MediumFace: 1
    - Vertices:
      - {x: 0, y: 1, z: 1}
      - {x: 0, y: 1, z: 0}
      - {x: 0, y: 0, z: 1}
      - {x: 0, y: 0, z: 0}
      Uvs:
      - {x: 0, y: 0}
      - {x: 1, y: 0}
      - {x: 0, y: 1}
      - {x: 1, y: 1}
      Indices: 000000000100000002000000030000000200000001000000
      Tangents: []
      Normals: []
      Valid: 0
      OpositeFace: 0
      FullFace: 1
      MediumFace: 0
    - Vertices:
      - {x: 1, y: 1, z: 1}
      - {x: 0, y: 1, z: 1}
      - {x: 1, y: 0, z: 1}
      - {x: 0, y: 0, z: 1}
      Uvs:
      - {x: 0, y: 0}
      - {x: 1, y: 0}
      - {x: 0, y: 1}
      - {x: 1, y: 1}
      Indices: 000000000100000002000000030000000200000001000000
      Tangents: []
      Normals: []
      Valid: 0
      OpositeFace: 0
      FullFace: 1
      MediumFace: 0
    - Vertices:
      - {x: 1, y: 1, z: 0.75}
      - {x: 1, y: 0, z: 0.75}
      - {x: 1, y: 1, z: 1}
      - {x: 1, y: 0, z: 1}
      Uvs:
      - {x: 0, y: 0}
      - {x: 0, y: 1}
      - {x: 1, y: 0}
      - {x: 1, y: 1}
      Indices: 020000000100000000000000010000000200000003000000
      Tangents: []
      Normals: []
      Valid: 0
      OpositeFace: 1
      FullFace: 0
      MediumFace: 1
    - Vertices:
      - {x: 0.25, y: 1, z: 0}
      - {x: 0, y: 1, z: 0}
      - {x: 0.25, y: 0, z: 0}
      - {x: 0, y: 0, z: 0}
      Uvs:
      - {x: 0, y: 0}
      - {x: 1, y: 0}
      - {x: 0, y: 1}
      - {x: 1, y: 1}
      Indices: 020000000100000000000000010000000200000003000000
      Tangents: []
      Normals: []
      Valid: 0
      OpositeFace: 1
      FullFace: 0
      MediumFace: 1
    SelectedSide: Top
    IsOpen: 0
    NoisePosition: 0
  - Id: 0
    Name: Roof
    TMesh:
    - Vertices: []
      Uvs: []
      Indices: 
      Tangents: []
      Normals: []
      Valid: 0
      OpositeFace: 0
      FullFace: 0
      MediumFace: 0
    - Vertices:
      - {x: 0, y: 1, z: 1}
      - {x: 1, y: 0, z: 1}
      - {x: 1, y: 0, z: 0}
      - {x: 0, y: 1, z: 0}
      Uvs:
      - {x: 0, y: 1}
      - {x: 0, y: 0}
      - {x: 1, y: 0}
      - {x: 1, y: 1}
      Indices: 000000000100000002000000020000000300000000000000
      Tangents: []
      Normals: []
      Valid: 0
      OpositeFace: 0
      FullFace: 0
      MediumFace: 0
    - Vertices:
      - {x: 1, y: 0, z: 1}
      - {x: 0, y: 0, z: 1}
      - {x: 0, y: 0, z: 0}
      - {x: 1, y: 0, z: 0}
      Uvs:
      - {x: 0, y: 0}
      - {x: 1, y: 0}
      - {x: 1, y: 1}
      - {x: 1, y: 0}
      Indices: 000000000100000002000000000000000200000003000000
      Tangents: []
      Normals: []
      Valid: 0
      OpositeFace: 0
      FullFace: 1
      MediumFace: 0
    - Vertices:
      - {x: 0, y: 1, z: 1}
      - {x: 0, y: 1, z: 0}
      - {x: 0, y: 0, z: 1}
      - {x: 0, y: 0, z: 0}
      Uvs:
      - {x: 0, y: 0}
      - {x: 1, y: 0}
      - {x: 0, y: 1}
      - {x: 1, y: 1}
      Indices: 000000000100000002000000030000000200000001000000
      Tangents: []
      Normals: []
      Valid: 0
      OpositeFace: 0
      FullFace: 1
      MediumFace: 1
    - Vertices:
      - {x: 0, y: 1, z: 1}
      - {x: 0, y: 0, z: 1}
      - {x: 1, y: 0, z: 1}
      Uvs:
      - {x: 1, y: 1}
      - {x: 1, y: 0}
      - {x: 0, y: 0}
      Indices: 000000000100000002000000
      Tangents: []
      Normals: []
      Valid: 0
      OpositeFace: 1
      FullFace: 0
      MediumFace: 1
    - Vertices: []
      Uvs: []
      Indices: 
      Tangents: []
      Normals: []
      Valid: 0
      OpositeFace: 0
      FullFace: 0
      MediumFace: 0
    - Vertices:
      - {x: 0, y: 1, z: 0}
      - {x: 0, y: 0, z: 0}
      - {x: 1, y: 0, z: 0}
      Uvs:
      - {x: 1, y: 1}
      - {x: 1, y: 0}
      - {x: 0, y: 0}
      Indices: 020000000100000000000000
      Tangents: []
      Normals: []
      Valid: 0
      OpositeFace: 1
      FullFace: 0
      MediumFace: 1
    SelectedSide: 
    IsOpen: 0
    NoisePosition: 0
  - Id: 0
    Name: TopRoof
    TMesh:
    - Vertices: []
      Uvs: []
      Indices: 
      Tangents: []
      Normals: []
      Valid: 0
      OpositeFace: 0
      FullFace: 0
      MediumFace: 0
    - Vertices:
      - {x: 0, y: 1, z: 1}
      - {x: 1, y: 1, z: 1}
      - {x: 1, y: 1, z: 0}
      - {x: 0, y: 1, z: 0}
      Uvs:
      - {x: 0, y: 0}
      - {x: 1, y: 0}
      - {x: 1, y: 1}
      - {x: 0, y: 1}
      Indices: 000000000100000002000000020000000300000000000000
      Tangents: []
      Normals: []
      Valid: 0
      OpositeFace: 0
      FullFace: 1
      MediumFace: 0
    - Vertices:
      - {x: 0, y: 0, z: 1}
      - {x: 1, y: 1, z: 1}
      - {x: 1, y: 1, z: 0}
      - {x: 0, y: 0, z: 0}
      Uvs:
      - {x: 0, y: 0}
      - {x: 1, y: 0}
      - {x: 1, y: 1}
      - {x: 0, y: 1}
      Indices: 020000000100000000000000030000000200000000000000
      Tangents: []
      Normals: []
      Valid: 0
      OpositeFace: 0
      FullFace: 0
      MediumFace: 0
    - Vertices:
      - {x: 0, y: 1, z: 1}
      - {x: 0, y: 1, z: 0}
      - {x: 0, y: 0, z: 0}
      - {x: 0, y: 0, z: 1}
      Uvs:
      - {x: 0, y: 0}
      - {x: 1, y: 0}
      - {x: 1, y: 1}
      - {x: 0, y: 1}
      Indices: 000000000100000002000000020000000300000000000000
      Tangents: []
      Normals: []
      Valid: 0
      OpositeFace: 0
      FullFace: 1
      MediumFace: 0
    - Vertices:
      - {x: 1, y: 1, z: 1}
      - {x: 0, y: 1, z: 1}
      - {x: 0, y: 0, z: 1}
      Uvs:
      - {x: 1, y: 1}
      - {x: 0, y: 1}
      - {x: 0, y: 0}
      Indices: 000000000100000002000000
      Tangents: []
      Normals: []
      Valid: 0
      OpositeFace: 1
      FullFace: 0
      MediumFace: 1
    - Vertices: []
      Uvs: []
      Indices: 
      Tangents: []
      Normals: []
      Valid: 0
      OpositeFace: 0
      FullFace: 0
      MediumFace: 0
    - Vertices:
      - {x: 0, y: 1, z: 0}
      - {x: 1, y: 1, z: 0}
      - {x: 0, y: 0, z: 0}
      Uvs:
      - {x: 1, y: 1}
      - {x: 0, y: 1}
      - {x: 0, y: 0}
      Indices: 000000000100000002000000
      Tangents: []
      Normals: []
      Valid: 0
      OpositeFace: 1
      FullFace: 0
      MediumFace: 1
    SelectedSide: Forward
    IsOpen: 0
    NoisePosition: 0
  - Id: 0
    Name: Post
    TMesh:
    - Vertices: []
      Uvs: []
      Indices: 
      Tangents: []
      Normals: []
      Valid: 0
      OpositeFace: 0
      FullFace: 0
      MediumFace: 0
    - Vertices:
      - {x: 0, y: 1, z: 0}
      - {x: 0, y: 1, z: 0.25}
      - {x: 0.25, y: 1, z: 0}
      - {x: 0.25, y: 1, z: 0.25}
      Uvs:
      - {x: 0, y: 1}
      - {x: 0, y: 0}
      - {x: 1, y: 1}
      - {x: 1, y: 0}
      Indices: 000000000100000002000000030000000200000001000000
      Tangents: []
      Normals: []
      Valid: 0
      OpositeFace: 1
      FullFace: 0
      MediumFace: 1
    - Vertices:
      - {x: 0, y: 0, z: 0}
      - {x: 0, y: 0, z: 0.25}
      - {x: 0.25, y: 0, z: 0}
      - {x: 0.25, y: 0, z: 0.25}
      Uvs:
      - {x: 0, y: 1}
      - {x: 0, y: 0}
      - {x: 1, y: 1}
      - {x: 1, y: 0}
      Indices: 020000000100000000000000010000000200000003000000
      Tangents: []
      Normals: []
      Valid: 0
      OpositeFace: 1
      FullFace: 0
      MediumFace: 1
    - Vertices:
      - {x: 0, y: 1, z: 0.25}
      - {x: 0, y: 1, z: 0}
      - {x: 0, y: 0, z: 0.25}
      - {x: 0, y: 0, z: 0}
      Uvs:
      - {x: 0, y: 0}
      - {x: 1, y: 0}
      - {x: 0, y: 1}
      - {x: 1, y: 1}
      Indices: 000000000100000002000000030000000200000001000000
      Tangents: []
      Normals: []
      Valid: 0
      OpositeFace: 0
      FullFace: 0
      MediumFace: 1
    - Vertices:
      - {x: 0.25, y: 1, z: 0.25}
      - {x: 0, y: 1, z: 0.25}
      - {x: 0.25, y: 0, z: 0.25}
      - {x: 0, y: 0, z: 0.25}
      Uvs:
      - {x: 0, y: 0}
      - {x: 1, y: 0}
      - {x: 0, y: 1}
      - {x: 1, y: 1}
      Indices: 000000000100000002000000030000000200000001000000
      Tangents: []
      Normals: []
      Valid: 0
      OpositeFace: 0
      FullFace: 0
      MediumFace: 0
    - Vertices:
      - {x: 0.25, y: 1, z: 0.25}
      - {x: 0.25, y: 1, z: 0}
      - {x: 0.25, y: 0, z: 0.25}
      - {x: 0.25, y: 0, z: 0}
      Uvs:
      - {x: 0, y: 0}
      - {x: 1, y: 0}
      - {x: 0, y: 1}
      - {x: 1, y: 1}
      Indices: 020000000100000000000000010000000200000003000000
      Tangents: []
      Normals: []
      Valid: 0
      OpositeFace: 0
      FullFace: 0
      MediumFace: 0
    - Vertices:
      - {x: 0.25, y: 1, z: 0}
      - {x: 0, y: 1, z: 0}
      - {x: 0.25, y: 0, z: 0}
      - {x: 0, y: 0, z: 0}
      Uvs:
      - {x: 0, y: 0}
      - {x: 1, y: 0}
      - {x: 0, y: 1}
      - {x: 1, y: 1}
      Indices: 020000000100000000000000010000000200000003000000
      Tangents: []
      Normals: []
      Valid: 0
      OpositeFace: 0
      FullFace: 0
      MediumFace: 1
    SelectedSide: 
    IsOpen: 0
    NoisePosition: 0
  - Id: 0
    Name: RoofPost
    TMesh:
    - Vertices: []
      Uvs: []
      Indices: 
      Tangents: []
      Normals: []
      Valid: 0
      OpositeFace: 0
      FullFace: 0
      MediumFace: 0
    - Vertices:
      - {x: 0, y: 1, z: 0.25}
      - {x: 1, y: 0, z: 0.25}
      - {x: 1, y: 0, z: 0}
      - {x: 0, y: 1, z: 0}
      Uvs:
      - {x: 0, y: 0}
      - {x: 1, y: 0}
      - {x: 1, y: 1}
      - {x: 0, y: 1}
      Indices: 000000000100000002000000020000000300000000000000
      Tangents: []
      Normals: []
      Valid: 0
      OpositeFace: 0
      FullFace: 0
      MediumFace: 0
    - Vertices:
      - {x: 1, y: 0, z: 0.25}
      - {x: 0, y: 0, z: 0.25}
      - {x: 0, y: 0, z: 0}
      - {x: 1, y: 0, z: 0}
      Uvs:
      - {x: 0, y: 0}
      - {x: 1, y: 0}
      - {x: 0, y: 1}
      - {x: 1, y: 1}
      Indices: 000000000100000002000000010000000200000003000000
      Tangents: []
      Normals: []
      Valid: 0
      OpositeFace: 0
      FullFace: 0
      MediumFace: 1
    - Vertices:
      - {x: 0, y: 1, z: 0.25}
      - {x: 0, y: 1, z: 0}
      - {x: 0, y: 0, z: 0.25}
      - {x: 0, y: 0, z: 0}
      Uvs:
      - {x: 0, y: 0}
      - {x: 1, y: 0}
      - {x: 0, y: 1}
      - {x: 1, y: 1}
      Indices: 000000000100000002000000030000000200000001000000
      Tangents: []
      Normals: []
      Valid: 0
      OpositeFace: 0
      FullFace: 0
      MediumFace: 1
    - Vertices:
      - {x: 0, y: 1, z: 0.25}
      - {x: 0, y: 0, z: 0.25}
      - {x: 1, y: 0, z: 0.25}
      Uvs:
      - {x: 0, y: 0}
      - {x: 0, y: 1}
      - {x: 1, y: 1}
      Indices: 000000000100000002000000
      Tangents: []
      Normals: []
      Valid: 0
      OpositeFace: 0
      FullFace: 0
      MediumFace: 0
    - Vertices: []
      Uvs: []
      Indices: 
      Tangents: []
      Normals: []
      Valid: 0
      OpositeFace: 0
      FullFace: 0
      MediumFace: 0
    - Vertices:
      - {x: 0, y: 1, z: 0}
      - {x: 0, y: 0, z: 0}
      - {x: 1, y: 0, z: 0}
      Uvs:
      - {x: 0, y: 0}
      - {x: 0, y: 1}
      - {x: 1, y: 1}
      Indices: 020000000100000000000000
      Tangents: []
      Normals: []
      Valid: 0
      OpositeFace: 0
      FullFace: 0
      MediumFace: 1
    SelectedSide: 
    IsOpen: 0
    NoisePosition: 0
  - Id: 0
    Name: Flore
    TMesh:
    - Vertices:
      - {x: 0, y: 1, z: 1}
      - {x: 1, y: 1, z: 0}
      - {x: 0, y: 0, z: 1}
      - {x: 1, y: 0, z: 0}
      - {x: 0, y: 1, z: 0}
      - {x: 1, y: 1, z: 1}
      - {x: 0, y: 0, z: 0}
      - {x: 1, y: 0, z: 1}
      - {x: 0, y: 1, z: 1}
      - {x: 1, y: 1, z: 0}
      - {x: 0, y: 0, z: 1}
      - {x: 1, y: 0, z: 0}
      - {x: 0, y: 1, z: 0}
      - {x: 1, y: 1, z: 1}
      - {x: 0, y: 0, z: 0}
      - {x: 1, y: 0, z: 1}
      Uvs:
      - {x: 0, y: 1}
      - {x: 1, y: 1}
      - {x: 0, y: 0}
      - {x: 1, y: 0}
      - {x: 0, y: 1}
      - {x: 1, y: 1}
      - {x: 0, y: 0}
      - {x: 1, y: 0}
      - {x: 0, y: 1}
      - {x: 1, y: 1}
      - {x: 0, y: 0}
      - {x: 1, y: 0}
      - {x: 0, y: 1}
      - {x: 1, y: 1}
      - {x: 0, y: 0}
      - {x: 1, y: 0}
      Indices: 0000000001000000020000000300000002000000010000000600000005000000040000000500000006000000070000000a0000000900000008000000090000000a0000000b0000000c0000000d0000000e0000000f0000000e0000000d000000
      Tangents: []
      Normals: []
      Valid: 0
      OpositeFace: 0
      FullFace: 0
      MediumFace: 0
    - Vertices: []
      Uvs: []
      Indices: 
      Tangents: []
      Normals: []
      Valid: 0
      OpositeFace: 0
      FullFace: 0
      MediumFace: 0
    - Vertices: []
      Uvs: []
      Indices: 
      Tangents: []
      Normals: []
      Valid: 0
      OpositeFace: 0
      FullFace: 0
      MediumFace: 0
    - Vertices: []
      Uvs: []
      Indices: 
      Tangents: []
      Normals: []
      Valid: 0
      OpositeFace: 0
      FullFace: 0
      MediumFace: 0
    - Vertices: []
      Uvs: []
      Indices: 
      Tangents: []
      Normals: []
      Valid: 0
      OpositeFace: 0
      FullFace: 0
      MediumFace: 0
    - Vertices: []
      Uvs: []
      Indices: 
      Tangents: []
      Normals: []
      Valid: 0
      OpositeFace: 0
      FullFace: 0
      MediumFace: 0
    - Vertices: []
      Uvs: []
      Indices: 
      Tangents: []
      Normals: []
      Valid: 0
      OpositeFace: 0
      FullFace: 0
      MediumFace: 0
    SelectedSide: Center
    IsOpen: 0
    NoisePosition: 0
  - Id: 0
    Name: RoofAngle
    TMesh:
    - Vertices:
      - {x: 1, y: 0, z: 0}
      - {x: 0, y: 1, z: 1}
      - {x: 1, y: 0, z: 1}
      - {x: 0, y: 0, z: 0}
      - {x: 0, y: 1, z: 1}
      - {x: 1, y: 0, z: 0}
      Uvs:
      - {x: 1, y: 0}
      - {x: 0, y: 1}
      - {x: 0, y: 0}
      - {x: 1, y: 0}
      - {x: 1, y: 1}
      - {x: 0, y: 0}
      Indices: 000000000100000002000000030000000400000005000000
      Tangents: []
      Normals: []
      Valid: 0
      OpositeFace: 0
      FullFace: 0
      MediumFace: 0
    - Vertices: []
      Uvs: []
      Indices: 
      Tangents: []
      Normals: []
      Valid: 0
      OpositeFace: 0
      FullFace: 0
      MediumFace: 0
    - Vertices:
      - {x: 0, y: 0, z: 0}
      - {x: 0, y: 0, z: 1}
      - {x: 1, y: 0, z: 1}
      - {x: 1, y: 0, z: 0}
      Uvs:
      - {x: 0, y: 1}
      - {x: 0, y: 0}
      - {x: 1, y: 0}
      - {x: 1, y: 1}
      Indices: 020000000100000000000000030000000200000000000000
      Tangents: []
      Normals: []
      Valid: 0
      OpositeFace: 0
      FullFace: 1
      MediumFace: 0
    - Vertices:
      - {x: 0, y: 0, z: 1}
      - {x: 0, y: 1, z: 1}
      - {x: 0, y: 0, z: 0}
      Uvs:
      - {x: 0, y: 1}
      - {x: 0, y: 0}
      - {x: 1, y: 1}
      Indices: 000000000100000002000000
      Tangents: []
      Normals: []
      Valid: 0
      OpositeFace: 0
      FullFace: 0
      MediumFace: 1
    - Vertices:
      - {x: 0, y: 0, z: 1}
      - {x: 0, y: 1, z: 1}
      - {x: 1, y: 0, z: 1}
      Uvs:
      - {x: 0, y: 1}
      - {x: 0, y: 0}
      - {x: 1, y: 1}
      Indices: 020000000100000000000000
      Tangents: []
      Normals: []
      Valid: 0
      OpositeFace: 0
      FullFace: 0
      MediumFace: 1
    - Vertices: []
      Uvs: []
      Indices: 
      Tangents: []
      Normals: []
      Valid: 0
      OpositeFace: 0
      FullFace: 0
      MediumFace: 0
    - Vertices: []
      Uvs: []
      Indices: 
      Tangents: []
      Normals: []
      Valid: 0
      OpositeFace: 0
      FullFace: 0
      MediumFace: 0
    SelectedSide: 
    IsOpen: 0
    NoisePosition: 0
  - Id: 0
    Name: RoofInnerAngle
    TMesh:
    - Vertices:
      - {x: 1, y: 1, z: 1}
      - {x: 1, y: 1, z: 0}
      - {x: 0, y: 0, z: 0}
      - {x: 1, y: 1, z: 1}
      - {x: 0, y: 0, z: 0}
      - {x: 0, y: 1, z: 1}
      Uvs:
      - {x: 1, y: 1}
      - {x: 0, y: 1}
      - {x: 0, y: 0}
      - {x: 0, y: 1}
      - {x: 1, y: 0}
      - {x: 1, y: 1}
      Indices: 000000000100000002000000030000000400000005000000
      Tangents: []
      Normals: []
      Valid: 0
      OpositeFace: 0
      FullFace: 0
      MediumFace: 0
    - Vertices: []
      Uvs: []
      Indices: 
      Tangents: []
      Normals: []
      Valid: 0
      OpositeFace: 0
      FullFace: 0
      MediumFace: 0
    - Vertices:
      - {x: 0, y: 0, z: 0}
      - {x: 0, y: 0, z: 1}
      - {x: 1, y: 0, z: 1}
      - {x: 1, y: 0, z: 0}
      Uvs:
      - {x: 0, y: 1}
      - {x: 0, y: 0}
      - {x: 1, y: 0}
      - {x: 1, y: 1}
      Indices: 020000000100000000000000000000000200000003000000
      Tangents: []
      Normals: []
      Valid: 0
      OpositeFace: 0
      FullFace: 0
      MediumFace: 0
    - Vertices:
      - {x: 0, y: 1, z: 1}
      - {x: 0, y: 0, z: 0}
      - {x: 0, y: 0, z: 1}
      Uvs:
      - {x: 0, y: 0}
      - {x: 1, y: 1}
      - {x: 0, y: 1}
      Indices: 000000000100000002000000
      Tangents: []
      Normals: []
      Valid: 0
      OpositeFace: 0
      FullFace: 0
      MediumFace: 0
    - Vertices:
      - {x: 0, y: 1, z: 1}
      - {x: 1, y: 1, z: 1}
      - {x: 1, y: 0, z: 1}
      - {x: 0, y: 0, z: 1}
      Uvs:
      - {x: 1, y: 0}
      - {x: 0, y: 0}
      - {x: 0, y: 1}
      - {x: 1, y: 1}
      Indices: 020000000100000000000000030000000200000000000000
      Tangents: []
      Normals: []
      Valid: 0
      OpositeFace: 0
      FullFace: 1
      MediumFace: 0
    - Vertices:
      - {x: 1, y: 1, z: 0}
      - {x: 1, y: 1, z: 1}
      - {x: 1, y: 0, z: 1}
      - {x: 1, y: 0, z: 0}
      Uvs:
      - {x: 0, y: 0}
      - {x: 1, y: 0}
      - {x: 1, y: 1}
      - {x: 0, y: 1}
      Indices: 000000000100000002000000020000000300000000000000
      Tangents: []
      Normals: []
      Valid: 0
      OpositeFace: 0
      FullFace: 1
      MediumFace: 0
    - Vertices:
      - {x: 1, y: 1, z: 0}
      - {x: 1, y: 0, z: 0}
      - {x: 0, y: 0, z: 0}
      Uvs:
      - {x: 1, y: 0}
      - {x: 1, y: 1}
      - {x: 0, y: 1}
      Indices: 000000000100000002000000
      Tangents: []
      Normals: []
      Valid: 0
      OpositeFace: 0
      FullFace: 0
      MediumFace: 0
    SelectedSide: 
    IsOpen: 0
    NoisePosition: 0
  - Id: 0
    Name: Side
    TMesh:
    - Vertices:
      - {x: 0, y: 1, z: 1}
      - {x: 0, y: 1, z: 0}
      - {x: 1, y: 1, z: 0}
      - {x: 0, y: 0, z: 1}
      - {x: 0, y: 0, z: 0}
      - {x: 1, y: 0, z: 0}
      - {x: 0, y: 0, z: 1}
      - {x: 0, y: 1, z: 1}
      - {x: 0, y: 0, z: 0}
      - {x: 0, y: 1, z: 0}
      - {x: 0, y: 0, z: 1}
      - {x: 1, y: 0, z: 0}
      - {x: 1, y: 1, z: 0}
      - {x: 0, y: 1, z: 1}
      - {x: 0, y: 0, z: 0}
      - {x: 0, y: 0, z: 0}
      - {x: 0, y: 1, z: 0}
      - {x: 1, y: 1, z: 0}
      Uvs:
      - {x: 1, y: 1}
      - {x: 1, y: 0}
      - {x: 0, y: 0}
      - {x: 1, y: 1}
      - {x: 1, y: 0}
      - {x: 0, y: 0}
      - {x: 0, y: 0}
      - {x: 1, y: 0}
      - {x: 0, y: 1}
      - {x: 1, y: 1}
      - {x: 0, y: 1}
      - {x: 0, y: 0}
      - {x: 1, y: 0}
      - {x: 1, y: 1}
      - {x: 0, y: 0}
      - {x: 1, y: 0}
      - {x: 1, y: 1}
      - {x: 1, y: 0}
      Indices: 0200000001000000000000000300000004000000050000000600000007000000080000000900000008000000070000000a0000000b0000000c0000000c0000000d0000000a0000000e0000000f000000100000000e0000001000000011000000
      Tangents: []
      Normals: []
      Valid: 0
      OpositeFace: 0
      FullFace: 0
      MediumFace: 0
    - Vertices: []
      Uvs: []
      Indices: 
      Tangents: []
      Normals: []
      Valid: 0
      OpositeFace: 0
      FullFace: 0
      MediumFace: 0
    - Vertices: []
      Uvs: []
      Indices: 
      Tangents: []
      Normals: []
      Valid: 0
      OpositeFace: 0
      FullFace: 0
      MediumFace: 0
    - Vertices: []
      Uvs: []
      Indices: 
      Tangents: []
      Normals: []
      Valid: 0
      OpositeFace: 0
      FullFace: 0
      MediumFace: 0
    - Vertices: []
      Uvs: []
      Indices: 
      Tangents: []
      Normals: []
      Valid: 0
      OpositeFace: 0
      FullFace: 0
      MediumFace: 0
    - Vertices: []
      Uvs: []
      Indices: 
      Tangents: []
      Normals: []
      Valid: 0
      OpositeFace: 0
      FullFace: 0
      MediumFace: 0
    - Vertices: []
      Uvs: []
      Indices: 
      Tangents: []
      Normals: []
      Valid: 0
      OpositeFace: 0
      FullFace: 0
      MediumFace: 0
    SelectedSide: Center
    IsOpen: 0
    NoisePosition: 0
  - Id: 0
    Name: Plane
    TMesh:
    - Vertices: []
      Uvs: []
      Indices: 
      Tangents: []
      Normals: []
      Valid: 0
      OpositeFace: 0
      FullFace: 0
      MediumFace: 0
    - Vertices: []
      Uvs: []
      Indices: 
      Tangents: []
      Normals: []
      Valid: 0
      OpositeFace: 0
      FullFace: 0
      MediumFace: 0
    - Vertices: []
      Uvs: []
      Indices: 
      Tangents: []
      Normals: []
      Valid: 0
      OpositeFace: 0
      FullFace: 0
      MediumFace: 0
    - Vertices:
      - {x: 0, y: 1, z: 1}
      - {x: 0, y: 1, z: 0}
      - {x: 0, y: 0, z: 0}
      - {x: 0, y: 0, z: 1}
      - {x: 0, y: 1, z: 0}
      - {x: 0, y: 1, z: 1}
      - {x: 0, y: 0, z: 1}
      - {x: 0, y: 0, z: 0}
      Uvs:
      - {x: 1, y: 1}
      - {x: 0, y: 1}
      - {x: 0, y: 0}
      - {x: 1, y: 0}
      - {x: 1, y: 1}
      - {x: 0, y: 1}
      - {x: 0, y: 0}
      - {x: 1, y: 0}
      Indices: 000000000100000002000000020000000300000000000000040000000500000006000000040000000600000007000000
      Tangents: []
      Normals: []
      Valid: 0
      OpositeFace: 0
      FullFace: 0
      MediumFace: 0
    - Vertices: []
      Uvs: []
      Indices: 
      Tangents: []
      Normals: []
      Valid: 0
      OpositeFace: 0
      FullFace: 0
      MediumFace: 0
    - Vertices: []
      Uvs: []
      Indices: 
      Tangents: []
      Normals: []
      Valid: 0
      OpositeFace: 0
      FullFace: 0
      MediumFace: 0
    - Vertices: []
      Uvs: []
      Indices: 
      Tangents: []
      Normals: []
      Valid: 0
      OpositeFace: 0
      FullFace: 0
      MediumFace: 0
    SelectedSide: 
    IsOpen: 0
    NoisePosition: 0
  - Id: 0
    Name: Plane45
    TMesh:
    - Vertices: []
      Uvs: []
      Indices: 
      Tangents: []
      Normals: []
      Valid: 0
      OpositeFace: 0
      FullFace: 0
      MediumFace: 0
    - Vertices:
      - {x: 0, y: 1, z: 1}
      - {x: 1, y: 0, z: 1}
      - {x: 1, y: 0, z: 0}
      - {x: 0, y: 1, z: 0}
      Uvs:
      - {x: 0, y: 1}
      - {x: 0, y: 0}
      - {x: 1, y: 0}
      - {x: 1, y: 1}
      Indices: 000000000100000002000000020000000300000000000000
      Tangents: []
      Normals: []
      Valid: 0
      OpositeFace: 0
      FullFace: 0
      MediumFace: 0
    - Vertices: []
      Uvs: []
      Indices: 
      Tangents: []
      Normals: []
      Valid: 0
      OpositeFace: 0
      FullFace: 0
      MediumFace: 0
    - Vertices: []
      Uvs: []
      Indices: 
      Tangents: []
      Normals: []
      Valid: 0
      OpositeFace: 0
      FullFace: 0
      MediumFace: 0
    - Vertices: []
      Uvs: []
      Indices: 
      Tangents: []
      Normals: []
      Valid: 0
      OpositeFace: 0
      FullFace: 0
      MediumFace: 0
    - Vertices: []
      Uvs: []
      Indices: 
      Tangents: []
      Normals: []
      Valid: 0
      OpositeFace: 0
      FullFace: 0
      MediumFace: 0
    - Vertices: []
      Uvs: []
      Indices: 
      Tangents: []
      Normals: []
      Valid: 0
      OpositeFace: 0
      FullFace: 0
      MediumFace: 0
    SelectedSide: 
    IsOpen: 0
    NoisePosition: 0
  Textures:
  - Id: 0
    Name: Cube
    Top: {fileID: 2800000, guid: d0b23ebac9df8ff4abe70f9e27908116, type: 3}
    Side: {fileID: 2800000, guid: d0b23ebac9df8ff4abe70f9e27908116, type: 3}
    Bottom: {fileID: 2800000, guid: d0b23ebac9df8ff4abe70f9e27908116, type: 3}
    TilingBlockSize: 3
    YAxis: 0
    TopNormal: {fileID: 2800000, guid: fc97ea126081a33409edc5462e195353, type: 3}
    SideNormal: {fileID: 2800000, guid: fc97ea126081a33409edc5462e195353, type: 3}
    BottomNormal: {fileID: 2800000, guid: fc97ea126081a33409edc5462e195353, type: 3}
    TextureType: 0
    TopUv:
      serializedVersion: 2
      x: 0
      y: 0
      width: 0
      height: 0
    SideUv:
      serializedVersion: 2
      x: 0
      y: 0
      width: 0
      height: 0
    BottomUv:
      serializedVersion: 2
      x: 0
      y: 0
      width: 0
      height: 0
    TopId: 0
    SideId: 0
    BottomId: 0
  - Id: 0
    Name: BeachSandDirt_diffuse_spec
    Top: {fileID: 2800000, guid: 0497316ec98d9db4c9603109842dee52, type: 3}
    Side: {fileID: 2800000, guid: 0497316ec98d9db4c9603109842dee52, type: 3}
    Bottom: {fileID: 2800000, guid: 0497316ec98d9db4c9603109842dee52, type: 3}
    TilingBlockSize: 1
    YAxis: 0
    TopNormal: {fileID: 2800000, guid: 2a222b37e5010804ba1d5c1c8fa8fe5d, type: 3}
    SideNormal: {fileID: 2800000, guid: 2a222b37e5010804ba1d5c1c8fa8fe5d, type: 3}
    BottomNormal: {fileID: 2800000, guid: 2a222b37e5010804ba1d5c1c8fa8fe5d, type: 3}
    TextureType: 0
    TopUv:
      serializedVersion: 2
      x: 0
      y: 0
      width: 0
      height: 0
    SideUv:
      serializedVersion: 2
      x: 0
      y: 0
      width: 0
      height: 0
    BottomUv:
      serializedVersion: 2
      x: 0
      y: 0
      width: 0
      height: 0
    TopId: 0
    SideId: 0
    BottomId: 0
  - Id: 0
    Name: dirt_and_rock3_diffuse
    Top: {fileID: 2800000, guid: b918cd22900c2ce4a85200b79bb6f270, type: 3}
    Side: {fileID: 2800000, guid: b918cd22900c2ce4a85200b79bb6f270, type: 3}
    Bottom: {fileID: 2800000, guid: b918cd22900c2ce4a85200b79bb6f270, type: 3}
    TilingBlockSize: 1
    YAxis: 0
    TopNormal: {fileID: 2800000, guid: dedf0f915d670c14da996cadc9b6cfc6, type: 3}
    SideNormal: {fileID: 2800000, guid: dedf0f915d670c14da996cadc9b6cfc6, type: 3}
    BottomNormal: {fileID: 2800000, guid: dedf0f915d670c14da996cadc9b6cfc6, type: 3}
    TextureType: 0
    TopUv:
      serializedVersion: 2
      x: 0
      y: 0
      width: 0
      height: 0
    SideUv:
      serializedVersion: 2
      x: 0
      y: 0
      width: 0
      height: 0
    BottomUv:
      serializedVersion: 2
      x: 0
      y: 0
      width: 0
      height: 0
    TopId: 0
    SideId: 0
    BottomId: 0
  - Id: 0
    Name: Grass&Rock_Diffuse_Spec
    Top: {fileID: 2800000, guid: 3730ee11005377c41b9cf1420d8b759e, type: 3}
    Side: {fileID: 2800000, guid: 3730ee11005377c41b9cf1420d8b759e, type: 3}
    Bottom: {fileID: 2800000, guid: 3730ee11005377c41b9cf1420d8b759e, type: 3}
    TilingBlockSize: 1
    YAxis: 0
    TopNormal: {fileID: 2800000, guid: 31bcc2d3c32b05148a1da6c620fbd161, type: 3}
    SideNormal: {fileID: 2800000, guid: 31bcc2d3c32b05148a1da6c620fbd161, type: 3}
    BottomNormal: {fileID: 2800000, guid: 31bcc2d3c32b05148a1da6c620fbd161, type: 3}
    TextureType: 0
    TopUv:
      serializedVersion: 2
      x: 0
      y: 0
      width: 0
      height: 0
    SideUv:
      serializedVersion: 2
      x: 0
      y: 0
      width: 0
      height: 0
    BottomUv:
      serializedVersion: 2
      x: 0
      y: 0
      width: 0
      height: 0
    TopId: 0
    SideId: 0
    BottomId: 0
  - Id: 0
    Name: nugget_rock3_diffuse
    Top: {fileID: 2800000, guid: 4f19fd45e1398b144910b145d5462b08, type: 3}
    Side: {fileID: 2800000, guid: 4f19fd45e1398b144910b145d5462b08, type: 3}
    Bottom: {fileID: 2800000, guid: 4f19fd45e1398b144910b145d5462b08, type: 3}
    TilingBlockSize: 1
    YAxis: 0
    TopNormal: {fileID: 2800000, guid: 4882a1b178bfc2c4d8fb0a85d9766e97, type: 3}
    SideNormal: {fileID: 2800000, guid: 4882a1b178bfc2c4d8fb0a85d9766e97, type: 3}
    BottomNormal: {fileID: 2800000, guid: 4882a1b178bfc2c4d8fb0a85d9766e97, type: 3}
    TextureType: 0
    TopUv:
      serializedVersion: 2
      x: 0
      y: 0
      width: 0
      height: 0
    SideUv:
      serializedVersion: 2
      x: 0
      y: 0
      width: 0
      height: 0
    BottomUv:
      serializedVersion: 2
      x: 0
      y: 0
      width: 0
      height: 0
    TopId: 0
    SideId: 0
    BottomId: 0
  - Id: 0
    Name: Rocky Dirt_Diffuse_Spec
    Top: {fileID: 2800000, guid: ce69e56842242bd46a2a1090c041e796, type: 3}
    Side: {fileID: 2800000, guid: ce69e56842242bd46a2a1090c041e796, type: 3}
    Bottom: {fileID: 2800000, guid: ce69e56842242bd46a2a1090c041e796, type: 3}
    TilingBlockSize: 1
    YAxis: 0
    TopNormal: {fileID: 2800000, guid: 91a4e87f544f34f4696d780f8e2e4566, type: 3}
    SideNormal: {fileID: 2800000, guid: 91a4e87f544f34f4696d780f8e2e4566, type: 3}
    BottomNormal: {fileID: 2800000, guid: 91a4e87f544f34f4696d780f8e2e4566, type: 3}
    TextureType: 0
    TopUv:
      serializedVersion: 2
      x: 0
      y: 0
      width: 0
      height: 0
    SideUv:
      serializedVersion: 2
      x: 0
      y: 0
      width: 0
      height: 0
    BottomUv:
      serializedVersion: 2
      x: 0
      y: 0
      width: 0
      height: 0
    TopId: 0
    SideId: 0
    BottomId: 0
  - Id: 0
    Name: RoundStones_diffuse_spec
    Top: {fileID: 2800000, guid: c97b24748e92be44d8422994d17aa144, type: 3}
    Side: {fileID: 2800000, guid: c97b24748e92be44d8422994d17aa144, type: 3}
    Bottom: {fileID: 2800000, guid: c97b24748e92be44d8422994d17aa144, type: 3}
    TilingBlockSize: 1
    YAxis: 0
    TopNormal: {fileID: 2800000, guid: c50b661e8d90b6e4a89cee6c37e5a20b, type: 3}
    SideNormal: {fileID: 2800000, guid: c50b661e8d90b6e4a89cee6c37e5a20b, type: 3}
    BottomNormal: {fileID: 2800000, guid: c50b661e8d90b6e4a89cee6c37e5a20b, type: 3}
    TextureType: 0
    TopUv:
      serializedVersion: 2
      x: 0
      y: 0
      width: 0
      height: 0
    SideUv:
      serializedVersion: 2
      x: 0
      y: 0
      width: 0
      height: 0
    BottomUv:
      serializedVersion: 2
      x: 0
      y: 0
      width: 0
      height: 0
    TopId: 0
    SideId: 0
    BottomId: 0
  - Id: 0
    Name: Stones_pebbles_diffuse_spec
    Top: {fileID: 2800000, guid: 47b720173793eed4c8eb2e3b095c0215, type: 3}
    Side: {fileID: 2800000, guid: 47b720173793eed4c8eb2e3b095c0215, type: 3}
    Bottom: {fileID: 2800000, guid: 47b720173793eed4c8eb2e3b095c0215, type: 3}
    TilingBlockSize: 1
    YAxis: 0
    TopNormal: {fileID: 2800000, guid: 062a9b11c62a26743b60c92358b29e2e, type: 3}
    SideNormal: {fileID: 2800000, guid: 062a9b11c62a26743b60c92358b29e2e, type: 3}
    BottomNormal: {fileID: 2800000, guid: 062a9b11c62a26743b60c92358b29e2e, type: 3}
    TextureType: 0
    TopUv:
      serializedVersion: 2
      x: 0
      y: 0
      width: 0
      height: 0
    SideUv:
      serializedVersion: 2
      x: 0
      y: 0
      width: 0
      height: 0
    BottomUv:
      serializedVersion: 2
      x: 0
      y: 0
      width: 0
      height: 0
    TopId: 0
    SideId: 0
    BottomId: 0
  - Id: 0
    Name: StoneWall2_diffuse_spec
    Top: {fileID: 2800000, guid: a682fb81705b1654f8a310450031662c, type: 3}
    Side: {fileID: 2800000, guid: a682fb81705b1654f8a310450031662c, type: 3}
    Bottom: {fileID: 2800000, guid: a682fb81705b1654f8a310450031662c, type: 3}
    TilingBlockSize: 1
    YAxis: 0
    TopNormal: {fileID: 2800000, guid: a50746fe09d732c47a4de43fb3ad298b, type: 3}
    SideNormal: {fileID: 2800000, guid: a50746fe09d732c47a4de43fb3ad298b, type: 3}
    BottomNormal: {fileID: 2800000, guid: a50746fe09d732c47a4de43fb3ad298b, type: 3}
    TextureType: 0
    TopUv:
      serializedVersion: 2
      x: 0
      y: 0
      width: 0
      height: 0
    SideUv:
      serializedVersion: 2
      x: 0
      y: 0
      width: 0
      height: 0
    BottomUv:
      serializedVersion: 2
      x: 0
      y: 0
      width: 0
      height: 0
    TopId: 0
    SideId: 0
    BottomId: 0
  - Id: 0
    Name: brick01
    Top: {fileID: 2800000, guid: bf51f2991b8c4de4a9dfae3a7a8b03f0, type: 3}
    Side: {fileID: 2800000, guid: bf51f2991b8c4de4a9dfae3a7a8b03f0, type: 3}
    Bottom: {fileID: 2800000, guid: bf51f2991b8c4de4a9dfae3a7a8b03f0, type: 3}
    TilingBlockSize: 1
    YAxis: 0
    TopNormal: {fileID: 2800000, guid: f500387661422a84cb3615b6c663b2ce, type: 3}
    SideNormal: {fileID: 2800000, guid: f500387661422a84cb3615b6c663b2ce, type: 3}
    BottomNormal: {fileID: 2800000, guid: f500387661422a84cb3615b6c663b2ce, type: 3}
    TextureType: 0
    TopUv:
      serializedVersion: 2
      x: 0
      y: 0
      width: 0
      height: 0
    SideUv:
      serializedVersion: 2
      x: 0
      y: 0
      width: 0
      height: 0
    BottomUv:
      serializedVersion: 2
      x: 0
      y: 0
      width: 0
      height: 0
    TopId: 0
    SideId: 0
    BottomId: 0
  - Id: 0
    Name: flagstone
    Top: {fileID: 2800000, guid: 4cec9c3046116e74099bdc4eae674e93, type: 3}
    Side: {fileID: 2800000, guid: 4cec9c3046116e74099bdc4eae674e93, type: 3}
    Bottom: {fileID: 2800000, guid: 4cec9c3046116e74099bdc4eae674e93, type: 3}
    TilingBlockSize: 1
    YAxis: 0
    TopNormal: {fileID: 2800000, guid: f68980d25f272834a8e028586dd1eabe, type: 3}
    SideNormal: {fileID: 2800000, guid: f68980d25f272834a8e028586dd1eabe, type: 3}
    BottomNormal: {fileID: 2800000, guid: f68980d25f272834a8e028586dd1eabe, type: 3}
    TextureType: 0
    TopUv:
      serializedVersion: 2
      x: 0
      y: 0
      width: 0
      height: 0
    SideUv:
      serializedVersion: 2
      x: 0
      y: 0
      width: 0
      height: 0
    BottomUv:
      serializedVersion: 2
      x: 0
      y: 0
      width: 0
      height: 0
    TopId: 0
    SideId: 0
    BottomId: 0
  - Id: 0
    Name: concrete_block
    Top: {fileID: 2800000, guid: c044020313440a14e9c01a4946920357, type: 3}
    Side: {fileID: 2800000, guid: c044020313440a14e9c01a4946920357, type: 3}
    Bottom: {fileID: 2800000, guid: c044020313440a14e9c01a4946920357, type: 3}
    TilingBlockSize: 1
    YAxis: 0
    TopNormal: {fileID: 2800000, guid: 6db7709598c74e24d963b77b592c7ebe, type: 3}
    SideNormal: {fileID: 2800000, guid: 6db7709598c74e24d963b77b592c7ebe, type: 3}
    BottomNormal: {fileID: 2800000, guid: 6db7709598c74e24d963b77b592c7ebe, type: 3}
    TextureType: 0
    TopUv:
      serializedVersion: 2
      x: 0
      y: 0
      width: 0
      height: 0
    SideUv:
      serializedVersion: 2
      x: 0
      y: 0
      width: 0
      height: 0
    BottomUv:
      serializedVersion: 2
      x: 0
      y: 0
      width: 0
      height: 0
    TopId: 0
    SideId: 0
    BottomId: 0
  - Id: 0
    Name: door_wooden_bottom
    Top: {fileID: 2800000, guid: 165f0715c88b2664b8e31bb69bcdb8bb, type: 3}
    Side: {fileID: 2800000, guid: 165f0715c88b2664b8e31bb69bcdb8bb, type: 3}
    Bottom: {fileID: 2800000, guid: 165f0715c88b2664b8e31bb69bcdb8bb, type: 3}
    TilingBlockSize: 1
    YAxis: 0
    TopNormal: {fileID: 2800000, guid: 39e3d80d02b147345bcc176cbed77b17, type: 3}
    SideNormal: {fileID: 2800000, guid: 39e3d80d02b147345bcc176cbed77b17, type: 3}
    BottomNormal: {fileID: 2800000, guid: 39e3d80d02b147345bcc176cbed77b17, type: 3}
    TextureType: 0
    TopUv:
      serializedVersion: 2
      x: 0
      y: 0
      width: 0
      height: 0
    SideUv:
      serializedVersion: 2
      x: 0
      y: 0
      width: 0
      height: 0
    BottomUv:
      serializedVersion: 2
      x: 0
      y: 0
      width: 0
      height: 0
    TopId: 0
    SideId: 0
    BottomId: 0
  - Id: 0
    Name: door_wooden_top
    Top: {fileID: 2800000, guid: 61bf6e8f038b3bf42a011597b00d1acb, type: 3}
    Side: {fileID: 2800000, guid: 61bf6e8f038b3bf42a011597b00d1acb, type: 3}
    Bottom: {fileID: 2800000, guid: 61bf6e8f038b3bf42a011597b00d1acb, type: 3}
    TilingBlockSize: 1
    YAxis: 0
    TopNormal: {fileID: 2800000, guid: 4b637e68099ad3f448e8eb074e668499, type: 3}
    SideNormal: {fileID: 2800000, guid: 4b637e68099ad3f448e8eb074e668499, type: 3}
    BottomNormal: {fileID: 2800000, guid: 4b637e68099ad3f448e8eb074e668499, type: 3}
    TextureType: 0
    TopUv:
      serializedVersion: 2
      x: 0
      y: 0
      width: 0
      height: 0
    SideUv:
      serializedVersion: 2
      x: 0
      y: 0
      width: 0
      height: 0
    BottomUv:
      serializedVersion: 2
      x: 0
      y: 0
      width: 0
      height: 0
    TopId: 0
    SideId: 0
    BottomId: 0
  - Id: 0
    Name: shingles_asphalt
    Top: {fileID: 2800000, guid: 935a197f1be2a9a4f9a22cc08f519094, type: 3}
    Side: {fileID: 2800000, guid: 99814fc4e2a27284e92bd8281bbb5058, type: 3}
    Bottom: {fileID: 2800000, guid: 935a197f1be2a9a4f9a22cc08f519094, type: 3}
    TilingBlockSize: 1
    YAxis: 0
    TopNormal: {fileID: 2800000, guid: 45bfe4c2a50e1284ca4382280a8857cd, type: 3}
    SideNormal: {fileID: 2800000, guid: a93ca676d65afcd4b9f849eb63cbeab1, type: 3}
    BottomNormal: {fileID: 2800000, guid: 45bfe4c2a50e1284ca4382280a8857cd, type: 3}
    TextureType: 0
    TopUv:
      serializedVersion: 2
      x: 0
      y: 0
      width: 0
      height: 0
    SideUv:
      serializedVersion: 2
      x: 0
      y: 0
      width: 0
      height: 0
    BottomUv:
      serializedVersion: 2
      x: 0
      y: 0
      width: 0
      height: 0
    TopId: 0
    SideId: 0
    BottomId: 0
  - Id: 0
    Name: shingles_wood
    Top: {fileID: 2800000, guid: 096f4c1bca2a2524bb971a864f4ea70c, type: 3}
    Side: {fileID: 2800000, guid: 99814fc4e2a27284e92bd8281bbb5058, type: 3}
    Bottom: {fileID: 2800000, guid: 096f4c1bca2a2524bb971a864f4ea70c, type: 3}
    TilingBlockSize: 1
    YAxis: 0
    TopNormal: {fileID: 2800000, guid: e4ee91ef4302e5b44a9a431c9c99f135, type: 3}
    SideNormal: {fileID: 2800000, guid: a93ca676d65afcd4b9f849eb63cbeab1, type: 3}
    BottomNormal: {fileID: 2800000, guid: e4ee91ef4302e5b44a9a431c9c99f135, type: 3}
    TextureType: 0
    TopUv:
      serializedVersion: 2
      x: 0
      y: 0
      width: 0
      height: 0
    SideUv:
      serializedVersion: 2
      x: 0
      y: 0
      width: 0
      height: 0
    BottomUv:
      serializedVersion: 2
      x: 0
      y: 0
      width: 0
      height: 0
    TopId: 0
    SideId: 0
    BottomId: 0
  - Id: 0
    Name: siding_white
    Top: {fileID: 2800000, guid: 99814fc4e2a27284e92bd8281bbb5058, type: 3}
    Side: {fileID: 2800000, guid: 99814fc4e2a27284e92bd8281bbb5058, type: 3}
    Bottom: {fileID: 2800000, guid: 99814fc4e2a27284e92bd8281bbb5058, type: 3}
    TilingBlockSize: 1
    YAxis: 0
    TopNormal: {fileID: 2800000, guid: a93ca676d65afcd4b9f849eb63cbeab1, type: 3}
    SideNormal: {fileID: 2800000, guid: a93ca676d65afcd4b9f849eb63cbeab1, type: 3}
    BottomNormal: {fileID: 2800000, guid: a93ca676d65afcd4b9f849eb63cbeab1, type: 3}
    TextureType: 0
    TopUv:
      serializedVersion: 2
      x: 0
      y: 0
      width: 0
      height: 0
    SideUv:
      serializedVersion: 2
      x: 0
      y: 0
      width: 0
      height: 0
    BottomUv:
      serializedVersion: 2
      x: 0
      y: 0
      width: 0
      height: 0
    TopId: 0
    SideId: 0
    BottomId: 0
  - Id: 0
    Name: siding_tan
    Top: {fileID: 2800000, guid: 86eba7fa6431b034fafa214be57d64d1, type: 3}
    Side: {fileID: 2800000, guid: 86eba7fa6431b034fafa214be57d64d1, type: 3}
    Bottom: {fileID: 2800000, guid: 86eba7fa6431b034fafa214be57d64d1, type: 3}
    TilingBlockSize: 1
    YAxis: 0
    TopNormal: {fileID: 2800000, guid: 50fe19b0a75aa7d45b2b5f743aa942f0, type: 3}
    SideNormal: {fileID: 2800000, guid: 50fe19b0a75aa7d45b2b5f743aa942f0, type: 3}
    BottomNormal: {fileID: 2800000, guid: 50fe19b0a75aa7d45b2b5f743aa942f0, type: 3}
    TextureType: 0
    TopUv:
      serializedVersion: 2
      x: 0
      y: 0
      width: 0
      height: 0
    SideUv:
      serializedVersion: 2
      x: 0
      y: 0
      width: 0
      height: 0
    BottomUv:
      serializedVersion: 2
      x: 0
      y: 0
      width: 0
      height: 0
    TopId: 0
    SideId: 0
    BottomId: 0
  - Id: 0
    Name: planks
    Top: {fileID: 2800000, guid: c7e5319688cc5ac4bbb2156da2d552ca, type: 3}
    Side: {fileID: 2800000, guid: c7e5319688cc5ac4bbb2156da2d552ca, type: 3}
    Bottom: {fileID: 2800000, guid: c7e5319688cc5ac4bbb2156da2d552ca, type: 3}
    TilingBlockSize: 1
    YAxis: 0
    TopNormal: {fileID: 2800000, guid: e6d720bc284d8cf47b80b9c0bce5ec38, type: 3}
    SideNormal: {fileID: 2800000, guid: e6d720bc284d8cf47b80b9c0bce5ec38, type: 3}
    BottomNormal: {fileID: 2800000, guid: e6d720bc284d8cf47b80b9c0bce5ec38, type: 3}
    TextureType: 0
    TopUv:
      serializedVersion: 2
      x: 0
      y: 0
      width: 0
      height: 0
    SideUv:
      serializedVersion: 2
      x: 0
      y: 0
      width: 0
      height: 0
    BottomUv:
      serializedVersion: 2
      x: 0
      y: 0
      width: 0
      height: 0
    TopId: 0
    SideId: 0
    BottomId: 0
  - Id: 0
    Name: window_house1
    Top: {fileID: 2800000, guid: faf2ecd0bc95d0746912fe7fbf4179c4, type: 3}
    Side: {fileID: 2800000, guid: faf2ecd0bc95d0746912fe7fbf4179c4, type: 3}
    Bottom: {fileID: 2800000, guid: faf2ecd0bc95d0746912fe7fbf4179c4, type: 3}
    TilingBlockSize: 1
    YAxis: 0
    TopNormal: {fileID: 2800000, guid: 0faede44c8d1e0443b8cbfd18d5e56d2, type: 3}
    SideNormal: {fileID: 2800000, guid: 0faede44c8d1e0443b8cbfd18d5e56d2, type: 3}
    BottomNormal: {fileID: 2800000, guid: 0faede44c8d1e0443b8cbfd18d5e56d2, type: 3}
    TextureType: 1
    TopUv:
      serializedVersion: 2
      x: 0
      y: 0
      width: 0
      height: 0
    SideUv:
      serializedVersion: 2
      x: 0
      y: 0
      width: 0
      height: 0
    BottomUv:
      serializedVersion: 2
      x: 0
      y: 0
      width: 0
      height: 0
    TopId: 0
    SideId: 0
    BottomId: 0
  - Id: 0
    Name: window_paned01
    Top: {fileID: 2800000, guid: 8c3a48681d4ff7f408c4d285fa85afbc, type: 3}
    Side: {fileID: 2800000, guid: 8c3a48681d4ff7f408c4d285fa85afbc, type: 3}
    Bottom: {fileID: 2800000, guid: 8c3a48681d4ff7f408c4d285fa85afbc, type: 3}
    TilingBlockSize: 1
    YAxis: 0
    TopNormal: {fileID: 2800000, guid: 043904c590b397440aa95aeab6681faa, type: 3}
    SideNormal: {fileID: 2800000, guid: 043904c590b397440aa95aeab6681faa, type: 3}
    BottomNormal: {fileID: 2800000, guid: 043904c590b397440aa95aeab6681faa, type: 3}
    TextureType: 1
    TopUv:
      serializedVersion: 2
      x: 0
      y: 0
      width: 0
      height: 0
    SideUv:
      serializedVersion: 2
      x: 0
      y: 0
      width: 0
      height: 0
    BottomUv:
      serializedVersion: 2
      x: 0
      y: 0
      width: 0
      height: 0
    TopId: 0
    SideId: 0
    BottomId: 0
  - Id: 0
    Name: plant_aloe
    Top: {fileID: 2800000, guid: 5da0ad29803fe9148b16332126804de4, type: 3}
    Side: {fileID: 2800000, guid: 5da0ad29803fe9148b16332126804de4, type: 3}
    Bottom: {fileID: 2800000, guid: 5da0ad29803fe9148b16332126804de4, type: 3}
    TilingBlockSize: 1
    YAxis: 0
    TopNormal: {fileID: 2800000, guid: cd3a7c35f4c011847933d76a489b61d7, type: 3}
    SideNormal: {fileID: 2800000, guid: cd3a7c35f4c011847933d76a489b61d7, type: 3}
    BottomNormal: {fileID: 2800000, guid: cd3a7c35f4c011847933d76a489b61d7, type: 3}
    TextureType: 1
    TopUv:
      serializedVersion: 2
      x: 0
      y: 0
      width: 0
      height: 0
    SideUv:
      serializedVersion: 2
      x: 0
      y: 0
      width: 0
      height: 0
    BottomUv:
      serializedVersion: 2
      x: 0
      y: 0
      width: 0
      height: 0
    TopId: 0
    SideId: 0
    BottomId: 0
  - Id: 0
    Name: grass
    Top: {fileID: 2800000, guid: e8c7aa898b69de9498c76751daca9196, type: 3}
    Side: {fileID: 2800000, guid: e8c7aa898b69de9498c76751daca9196, type: 3}
    Bottom: {fileID: 2800000, guid: e8c7aa898b69de9498c76751daca9196, type: 3}
    TilingBlockSize: 1
    YAxis: 0
    TopNormal: {fileID: 2800000, guid: 0e1c7aa7ca8b72c42ba7c2e78fae6e9a, type: 3}
    SideNormal: {fileID: 2800000, guid: 0e1c7aa7ca8b72c42ba7c2e78fae6e9a, type: 3}
    BottomNormal: {fileID: 2800000, guid: 0e1c7aa7ca8b72c42ba7c2e78fae6e9a, type: 3}
    TextureType: 0
    TopUv:
      serializedVersion: 2
      x: 0
      y: 0
      width: 0
      height: 0
    SideUv:
      serializedVersion: 2
      x: 0
      y: 0
      width: 0
      height: 0
    BottomUv:
      serializedVersion: 2
      x: 0
      y: 0
      width: 0
      height: 0
    TopId: 0
    SideId: 0
    BottomId: 0
  - Id: 0
    Name: grass_greenbrown
    Top: {fileID: 2800000, guid: f27e8923b0baa6d419260532aec83790, type: 3}
    Side: {fileID: 2800000, guid: f27e8923b0baa6d419260532aec83790, type: 3}
    Bottom: {fileID: 2800000, guid: f27e8923b0baa6d419260532aec83790, type: 3}
    TilingBlockSize: 1
    YAxis: 0
    TopNormal: {fileID: 2800000, guid: c69413f45c75172459dc6726d37c6513, type: 3}
    SideNormal: {fileID: 2800000, guid: c69413f45c75172459dc6726d37c6513, type: 3}
    BottomNormal: {fileID: 2800000, guid: c69413f45c75172459dc6726d37c6513, type: 3}
    TextureType: 1
    TopUv:
      serializedVersion: 2
      x: 0
      y: 0
      width: 0
      height: 0
    SideUv:
      serializedVersion: 2
      x: 0
      y: 0
      width: 0
      height: 0
    BottomUv:
      serializedVersion: 2
      x: 0
      y: 0
      width: 0
      height: 0
    TopId: 0
    SideId: 0
    BottomId: 0
  - Id: 0
    Name: wrought_iron_fence
    Top: {fileID: 2800000, guid: f6fc373bca5554745bcfeebb29a3cf77, type: 3}
    Side: {fileID: 2800000, guid: f6fc373bca5554745bcfeebb29a3cf77, type: 3}
    Bottom: {fileID: 2800000, guid: f6fc373bca5554745bcfeebb29a3cf77, type: 3}
    TilingBlockSize: 1
    YAxis: 0
    TopNormal: {fileID: 2800000, guid: 7fbda1032ff999d46b7f9734e4b00bbf, type: 3}
    SideNormal: {fileID: 2800000, guid: 7fbda1032ff999d46b7f9734e4b00bbf, type: 3}
    BottomNormal: {fileID: 2800000, guid: 7fbda1032ff999d46b7f9734e4b00bbf, type: 3}
    TextureType: 1
    TopUv:
      serializedVersion: 2
      x: 0
      y: 0
      width: 0
      height: 0
    SideUv:
      serializedVersion: 2
      x: 0
      y: 0
      width: 0
      height: 0
    BottomUv:
      serializedVersion: 2
      x: 0
      y: 0
      width: 0
      height: 0
    TopId: 0
    SideId: 0
    BottomId: 0
  - Id: 0
    Name: IMBLUEBADIDADIADADIDOO
    Top: {fileID: 2800000, guid: 5029389ac7710b64a93df1ade6dc971b, type: 3}
    Side: {fileID: 2800000, guid: 5029389ac7710b64a93df1ade6dc971b, type: 3}
    Bottom: {fileID: 2800000, guid: 5029389ac7710b64a93df1ade6dc971b, type: 3}
    TilingBlockSize: 1
    YAxis: 0
    TopNormal: {fileID: 2800000, guid: 5029389ac7710b64a93df1ade6dc971b, type: 3}
    SideNormal: {fileID: 2800000, guid: 5029389ac7710b64a93df1ade6dc971b, type: 3}
    BottomNormal: {fileID: 2800000, guid: 5029389ac7710b64a93df1ade6dc971b, type: 3}
    TextureType: 1
    TopUv:
      serializedVersion: 2
      x: 0
      y: 0
      width: 0
      height: 0
    SideUv:
      serializedVersion: 2
      x: 0
      y: 0
      width: 0
      height: 0
    BottomUv:
      serializedVersion: 2
      x: 0
      y: 0
      width: 0
      height: 0
    TopId: 0
    SideId: 0
    BottomId: 0
  AtlasTexture: {fileID: 0}
  AtlasNormal: {fileID: 0}
  AtlasMaterial: {fileID: 2100000, guid: fced749522ae2af4aa4ddbb9bec6adcb, type: 2}
  TransparentMaterial: {fileID: 2100000, guid: 0aff471d2c066744ab47784bc7916fab, type: 2}
  GeneratingCount: 0
  ToApplyCount: 0
  DebugLog: 0
  TempList: []
  TempNormal: []
  IsLoaded: 0
  LoadingProgress: 0
--- !u!1001 &100100000
Prefab:
  m_ObjectHideFlags: 1
  serializedVersion: 2
  m_Modification:
    m_TransformParent: {fileID: 0}
    m_Modifications: []
    m_RemovedComponents: []
  m_ParentPrefab: {fileID: 0}
  m_RootGameObject: {fileID: 100000}
  m_IsPrefabParent: 1
